{
    "entities": [
        {
            "sectionStructure": {
                "columns": [
                    {
                        "code": "YOUR_EEID",
                        "hidden": false,
                        "dataType": "string",
                        "validations": [
                            {
                                "dependentColumns": [],
                                "expression": "ISBLANK(this.YOUR_EEID);",
                                "errorType": "ERROR",
                                "parameter": "",
                                "validationType": "expression",
                                "mda": "exclude_row",
                                "_id": "5a6c69823a51580018605a78",
                                "category": "input_data"
                            }
                        ],
                        "questionType": "text"
                    },
                    {
                        "code": "YOUR_TITLE",
                        "hidden": false,
                        "dataType": "string",
                        "validations": [],
                        "questionType": "text"
                    },
                    {
                        "code": "RandomQuesCode1",
                        "hidden": false,
                        "dataType": "int",
                        "validations": [
                            {
                                "dependentColumns": [],
                                "expression": "this.RandomQuesCode1<10;",
                                "errorType": "ERROR",
                                "parameter": "",
                                "validationType": "expression",
                                "mda": "",
                                "_id": "5a671aa71f1d39001606c8cf",
                                "category": "input_data"
                            },
                            {
                                "dependentColumns": [],
                                "expression": "ISBLANK(this.RandomQuesCode1);",
                                "errorType": "ALERT",
                                "parameter": "",
                                "validationType": "expression",
                                "mda": "",
                                "_id": "5a71ba82ce685b00183e3eaf",
                                "category": "input_data"
                            }
                        ],
                        "questionType": "integer"
                    },
                    {
                        "code": "RandomQuesCode2",
                        "hidden": false,
                        "dataType": "date",
                        "validations": [
                            {
                                "dependentColumns": [],
                                "expression": "YEAR(TO_DATE(this.RandomQuesCode2,\"yyyy-MM-dd\"))<2017;",
                                "errorType": "ALERT",
                                "parameter": "",
                                "validationType": "expression",
                                "mda": "",
                                "_id": "5a66fbf6653d75001801c4a8",
                                "category": "input_data"
                            }
                        ],
                        "questionType": "date"
                    },
                    {
                        "code": "RandomQuesCode3",
                        "hidden": false,
                        "dataType": "string",
                        "options": {
                            "items": [
                                {
                                    "displayName": "a",
                                    "value": "a"
                                },
                                {
                                    "displayName": "b",
                                    "value": "b"
                                },
                                {
                                    "displayName": "c",
                                    "value": "c"
                                }
                            ]
                        },
                        "validations": [],
                        "questionType": "dropdown"
                    },
                    {
                        "code": "RandomQuesCode4",
                        "hidden": false,
                        "dataType": "double",
                        "validations": [],
                        "questionType": "double"
                    },
                    {
                        "code": "RandomQuesCode5",
                        "hidden": false,
                        "dataType": "int",
                        "validations": [],
                        "questionType": "integer"
                    },
                    {
                        "code": "RandomQuesCode6",
                        "hidden": false,
                        "dataType": "int",
                        "validations": [
                            {
                                "dependentColumns": [],
                                "expression": "this.RandomQuesCode6>50;",
                                "errorType": "ENHANCEMENT",
                                "validationType": "expression",
                                "parameter": "",
                                "_id": "5a44daa2fc42f1001749c443",
                                "category": "input_data"
                            }
                        ],
                        "questionType": "integer"
                    },
                    {
                        "code": "RandomQuesCode7",
                        "hidden": false,
                        "dataType": "int",
                        "validations": [],
                        "questionType": "integer"
                    },
                    {
                        "code": "RandomQuesCode8",
                        "hidden": false,
                        "dataType": "int",
                        "validations": [],
                        "questionType": "integer"
                    },
                    {
                        "code": "RandomQuesCode9",
                        "hidden": false,
                        "dataType": "double",
                        "validations": [],
                        "questionType": "double"
                    },
                    {
                        "code": "RandomQuesCode10",
                        "hidden": false,
                        "dataType": "string",
                        "options": {
                            "items": [
                                {
                                    "displayName": "m",
                                    "value": "m"
                                },
                                {
                                    "displayName": "n",
                                    "value": "n"
                                },
                                {
                                    "displayName": "o",
                                    "value": "o"
                                }
                            ]
                        },
                        "validations": [
                            {
                                "dependentColumns": [],
                                "mdaExpression": "",
                                "expression": "FIND_IN_SET(this.RandomQuesCode10,[\"m\"]);",
                                "errorType": "ERROR",
                                "parameter": "",
                                "validationType": "expression",
                                "_id": "5a54b466d268d600188aba3a",
                                "category": "input_data"
                            }
                        ],
                        "questionType": "radio_buttons"
                    },
                    {
                        "code": "POS_CLASS",
                        "hidden": false,
                        "dataType": "int",
                        "validations": [],
                        "questionType": "integer"
                    },
                    {
                        "code": "YOUR_CODE",
                        "hidden": false,
                        "dataType": "string",
                        "validations": [],
                        "questionType": "text"
                    },
                    {
                        "code": "YOUR_LEVEL",
                        "hidden": false,
                        "dataType": "string",
                        "validations": [],
                        "questionType": "text"
                    },
                    {
                        "code": "YOUR_GRADE",
                        "hidden": false,
                        "dataType": "string",
                        "validations": [],
                        "questionType": "text"
                    },
                    {
                        "code": "POS_CODE",
                        "hidden": false,
                        "dataType": "string",
                        "validations": [
                            {
                                "dependentColumns": [],
                                "expression": "ISBLANK(this.YOUR_TITLE) && ISBLANK(this.POS_CODE);",
                                "errorType": "ERROR",
                                "parameter": "",
                                "validationType": "expression",
                                "mda": "",
                                "_id": "5a704c350819f80017f0d08c",
                                "category": "file_acceptance"
                            }
                        ],
                        "questionType": "text"
                    },
                    {
                        "code": "MDA_001",
                        "hidden": false,
                        "dataType": "int",
                        "validations": [
                            {
                                "maxAlert": 15,
                                "minAlert": 10,
                                "dependentColumns": [],
                                "minError": 5,
                                "maxError": 20,
                                "validationType": "range",
                                "_id": "5a1eceac523efc00172e00f5",
                                "mda": "5;",
                                "category": "input_data"
                            }
                        ],
                        "questionType": "integer"
                    },
                    {
                        "code": "RANDOM",
                        "hidden": false,
                        "dataType": "string",
                        "validations": [],
                        "questionType": "text"
                    },
                    {
                        "code": "CLIENT_EXCLUDE_EMPLOYEE",
                        "hidden": true,
                        "dataType": "string",
                        "validations": [],
                        "questionType": "text"
                    },
                    {
                        "code": "EMP_129",
                        "hidden": false,
                        "dataType": "double",
                        "validations": [
                            {
                                "dependentColumns": [],
                                "expression": "FIND_IN_SET(contextData.ctryCode,[\"AT\",\"BE\",\"BG\",\"CH\",\"CZ\",\"DE\",\"DK\",\"EE\",\"ES\",\"FI\",\"FR\",\"GB\",\"GR\",\"HR\",\"HU\",\"IE\",\"IT\",\"KZ\",\"LT\",\"LV\",\"NL\",\"NO\",\"PL\",\"PT\",\"RO\",\"RS\",\"RU\",\"SE\",\"SI\",\"SK\",\"TR\",\"UA\"]) AND ISBLANK(this.EMP_125) AND ISBLANK(this.EMP_129);",
                                "errorType": "ERROR",
                                "parameter": "",
                                "validationType": "expression",
                                "mda": "exclude_row",
                                "_id": "5a72b46fd5df3a0017ab7cda",
                                "category": "input_data"
                            },
                            {
                                "dependentColumns": [],
                                "expression": "this.GZ134 < 300;",
                                "errorType": "ERROR",
                                "parameter": "",
                                "validationType": "expression",
                                "_id": "5a25c0f711825f0015c3032c",
                                "category": "input_data"
                            },
                            {
                                "dependentColumns": [],
                                "expression": "ratio = 100*(this.EMP_129 /  this.EMP_131);\nEXP_SALINFLATION = NVL(LOOK_UP_CHECK(\"country\",\"CTX_CTRY_CODE = contextData.ctryCode\",\"SALARY_INFLATION\"),0);\n\n(this.EMP_042 == \"N\" OR ISBLANK(this.EMP_042))\n AND this.EMP_131 > 0 AND  this.EMP_129 > 0 \n AND ( (ratio  - 100) < -5   OR ( (ratio - 100) > (EXP_SALINFLATION * 100 + 20 )) ) ;",
                                "errorType": "ALERT",
                                "validationType": "expression",
                                "parameter": "",
                                "_id": "5a575abc648a740017e233b8",
                                "category": "input_data"
                            },
                            {
                                "dependentColumns": [],
                                "expression": "this.EXP_COMP1 > 0;",
                                "errorType": "ALERT",
                                "validationType": "expression",
                                "parameter": "",
                                "_id": "5a38e78ba70fc400160adeef",
                                "category": "input_data"
                            },
                            {
                                "dependentColumns": [],
                                "expression": "this.CAREER_LEVEL != 1;",
                                "errorType": "ALERT",
                                "parameter": "",
                                "validationType": "expression",
                                "_id": "5a2686cf2565f500154a5960",
                                "category": "input_data"
                            },
                            {
                                "dependentColumns": [],
                                "expression": "FIND_IN_SET(contextData.ctryCode,[\"AT\",\"BE\",\"BG\",\"CH\",\"CZ\",\"DE\",\"DK\",\"EE\",\"ES\",\"FI\",\"FR\",\"GB\",\"GR\",\"HR\",\"HU\",\"IE\",\"IT\",\"KZ\",\"LT\",\"LV\",\"NL\",\"NO\",\"PL\",\"PT\",\"RO\",\"RS\",\"RU\",\"SE\",\"SI\",\"SK\",\"TR\",\"UA\"]) AND ISBLANK(this.EMP_125) AND ISBLANK(this.EMP_129);",
                                "errorType": "ERROR",
                                "parameter": "",
                                "validationType": "expression",
                                "mda": "",
                                "_id": "5a72b46fd5df3a0017ab7cd9",
                                "category": "file_acceptance"
                            },
                            {
                                "dependentColumns": [],
                                "expression": "ISBLANK(this.EMP_129) && ISBLANK(this.EMP_130);",
                                "errorType": "ERROR",
                                "parameter": "",
                                "validationType": "expression",
                                "mda": "exclude_row",
                                "_id": "5a6c6a9a3a51580018605a7b",
                                "category": "input_data"
                            },
                            {
                                "dependentColumns": [],
                                "expression": "contextData.ctryCode == â\u0080\u009cUSâ\u0080\u009d AND ISBLANK(this.HOURLY_RATE) AND ISBLANK(this.EMP_129);",
                                "errorType": "ERROR",
                                "validationType": "expression",
                                "parameter": "",
                                "_id": "5a7034889197040018ac4228",
                                "mda": "",
                                "category": "file_acceptance"
                            },
                            {
                                "dependentColumns": [],
                                "expression": "contextData.ctryCode == â\u0080\u009cUSâ\u0080\u009d AND ISBLANK(this.HOURLY_RATE) AND ISBLANK(this.EMP_129);",
                                "errorType": "ERROR",
                                "parameter": "",
                                "validationType": "expression",
                                "mda": "exclude_row",
                                "_id": "5a6f336855b5ad0018ec0073",
                                "category": "input_data"
                            }
                        ],
                        "questionType": "double"
                    }
                ]
            },
            "otherSectionsData": {},
            "contextData": {
                "uniqueIdColumnCode": "YOUR_EEID",
                "companyId": "5a7b1087d3539b7c81c53794",
                "campaignId": "5a166726322cfb00185e6da4",
                "grpCode": "",
                "companyName": "ABC",
                "cpyCode": "",
                "industry": {
                    "superSector": "CH",
                    "subSector": "2550",
                    "sector": "209"
                },
                "orgSize": null,
                "sectionId": "RandomSectionCode1",
                "ctryCode": "US",
                "missing_eeid": false
            },
            "data": [
                {
                    "YOUR_OTHER": "",
                    "YOUR_TITLE": "",
                    "RandomQuesCode10": "",
                    "YOUR_EEID": "1",
                    "RANDOM": "",
                    "EMP_128": "",
                    "CLIENT_EXCLUDE_EMPLOYEE": "",
                    "EMP_129": "",
                    "RandomQuesCode2": "",
                    "RandomQuesCode3": "",
                    "RandomQuesCode4": "",
                    "RandomQuesCode5": "",
                    "RandomQuesCode6": "",
                    "RandomQuesCode7": "",
                    "YOUR_LEVEL": "",
                    "RandomQuesCode8": "",
                    "RandomQuesCode9": "",
                    "MDA_001": "3",
                    "RandomQuesCode1": "",
                    "POS_CLASS": "",
                    "YOUR_CODE": "",
                    "EMP_125": "",
                    "POS_CODE": "",
                    "YOUR_GRADE": ""
                },
                {
                    "YOUR_OTHER": "",
                    "YOUR_TITLE": "Accountant",
                    "RandomQuesCode10": "m",
                    "YOUR_EEID": "2",
                    "RANDOM": "1900",
                    "EMP_128": "",
                    "CLIENT_EXCLUDE_EMPLOYEE": "",
                    "EMP_129": "22800",
                    "RandomQuesCode2": "7/7/25",
                    "RandomQuesCode3": "a",
                    "RandomQuesCode4": "222",
                    "RandomQuesCode5": "44",
                    "RandomQuesCode6": "104",
                    "RandomQuesCode7": "44",
                    "YOUR_LEVEL": "T40",
                    "RandomQuesCode8": "22",
                    "RandomQuesCode9": "",
                    "MDA_001": "3",
                    "RandomQuesCode1": "22",
                    "POS_CLASS": "51",
                    "YOUR_CODE": "ADM002",
                    "EMP_125": "",
                    "POS_CODE": "FIN.06.001.P20",
                    "YOUR_GRADE": "1"
                },
                {
                    "YOUR_OTHER": "",
                    "YOUR_TITLE": "",
                    "RandomQuesCode10": "",
                    "YOUR_EEID": "3",
                    "RANDOM": "",
                    "EMP_128": "",
                    "CLIENT_EXCLUDE_EMPLOYEE": "",
                    "EMP_129": "",
                    "RandomQuesCode2": "",
                    "RandomQuesCode3": "",
                    "RandomQuesCode4": "",
                    "RandomQuesCode5": "",
                    "RandomQuesCode6": "",
                    "RandomQuesCode7": "",
                    "YOUR_LEVEL": "",
                    "RandomQuesCode8": "",
                    "RandomQuesCode9": "",
                    "MDA_001": "3",
                    "RandomQuesCode1": "",
                    "POS_CLASS": "",
                    "YOUR_CODE": "",
                    "EMP_125": "",
                    "POS_CODE": "",
                    "YOUR_GRADE": ""
                },
                {
                    "YOUR_OTHER": "",
                    "YOUR_TITLE": "Accountant",
                    "RandomQuesCode10": "n",
                    "YOUR_EEID": "4",
                    "RANDOM": "1100",
                    "EMP_128": "",
                    "CLIENT_EXCLUDE_EMPLOYEE": "",
                    "EMP_129": "13200",
                    "RandomQuesCode2": "7/7/26",
                    "RandomQuesCode3": "b",
                    "RandomQuesCode4": "3434",
                    "RandomQuesCode5": "66",
                    "RandomQuesCode6": "105",
                    "RandomQuesCode7": "22",
                    "YOUR_LEVEL": "T40",
                    "RandomQuesCode8": "23",
                    "RandomQuesCode9": "",
                    "MDA_001": "3",
                    "RandomQuesCode1": "23",
                    "POS_CLASS": "51",
                    "YOUR_CODE": "ADM002",
                    "EMP_125": "",
                    "POS_CODE": "FIN.06.001.P20",
                    "YOUR_GRADE": "1"
                },
                {
                    "YOUR_OTHER": "",
                    "YOUR_TITLE": "",
                    "RandomQuesCode10": "",
                    "YOUR_EEID": "5",
                    "RANDOM": "",
                    "EMP_128": "",
                    "CLIENT_EXCLUDE_EMPLOYEE": "",
                    "EMP_129": "",
                    "RandomQuesCode2": "",
                    "RandomQuesCode3": "",
                    "RandomQuesCode4": "",
                    "RandomQuesCode5": "",
                    "RandomQuesCode6": "",
                    "RandomQuesCode7": "",
                    "YOUR_LEVEL": "",
                    "RandomQuesCode8": "",
                    "RandomQuesCode9": "",
                    "MDA_001": "3",
                    "RandomQuesCode1": "",
                    "POS_CLASS": "",
                    "YOUR_CODE": "",
                    "EMP_125": "",
                    "POS_CODE": "",
                    "YOUR_GRADE": ""
                },
                {
                    "YOUR_OTHER": "",
                    "YOUR_TITLE": "Accountant",
                    "RandomQuesCode10": "m",
                    "YOUR_EEID": "6",
                    "RANDOM": "",
                    "EMP_128": "",
                    "CLIENT_EXCLUDE_EMPLOYEE": "",
                    "EMP_129": "11400",
                    "RandomQuesCode2": "7/7/27",
                    "RandomQuesCode3": "c",
                    "RandomQuesCode4": "4334",
                    "RandomQuesCode5": "6",
                    "RandomQuesCode6": "106",
                    "RandomQuesCode7": "33",
                    "YOUR_LEVEL": "T40",
                    "RandomQuesCode8": "24",
                    "RandomQuesCode9": "",
                    "MDA_001": "3",
                    "RandomQuesCode1": "24",
                    "POS_CLASS": "51",
                    "YOUR_CODE": "ADM002",
                    "EMP_125": "",
                    "POS_CODE": "FIN.06.001.P20",
                    "YOUR_GRADE": "1"
                },
                {
                    "YOUR_OTHER": "",
                    "YOUR_TITLE": "",
                    "RandomQuesCode10": "",
                    "YOUR_EEID": "7",
                    "RANDOM": "",
                    "EMP_128": "",
                    "CLIENT_EXCLUDE_EMPLOYEE": "",
                    "EMP_129": "",
                    "RandomQuesCode2": "",
                    "RandomQuesCode3": "",
                    "RandomQuesCode4": "",
                    "RandomQuesCode5": "",
                    "RandomQuesCode6": "",
                    "RandomQuesCode7": "",
                    "YOUR_LEVEL": "",
                    "RandomQuesCode8": "",
                    "RandomQuesCode9": "",
                    "MDA_001": "3",
                    "RandomQuesCode1": "",
                    "POS_CLASS": "",
                    "YOUR_CODE": "",
                    "EMP_125": "",
                    "POS_CODE": "",
                    "YOUR_GRADE": ""
                },
                {
                    "YOUR_OTHER": "",
                    "YOUR_TITLE": "Accounting Clerk",
                    "RandomQuesCode10": "n",
                    "YOUR_EEID": "8",
                    "RANDOM": "1800",
                    "EMP_128": "",
                    "CLIENT_EXCLUDE_EMPLOYEE": "",
                    "EMP_129": "21600",
                    "RandomQuesCode2": "7/7/28",
                    "RandomQuesCode3": "d",
                    "RandomQuesCode4": "23",
                    "RandomQuesCode5": "4",
                    "RandomQuesCode6": "107",
                    "RandomQuesCode7": "65",
                    "YOUR_LEVEL": "MM",
                    "RandomQuesCode8": "25",
                    "RandomQuesCode9": "",
                    "MDA_001": "3",
                    "RandomQuesCode1": "25",
                    "POS_CLASS": "52",
                    "YOUR_CODE": "ADM001",
                    "EMP_125": "",
                    "POS_CODE": "FIN.06.001.S20",
                    "YOUR_GRADE": "A"
                },
                {
                    "YOUR_OTHER": "",
                    "YOUR_TITLE": "",
                    "RandomQuesCode10": "",
                    "YOUR_EEID": "9",
                    "RANDOM": "",
                    "EMP_128": "",
                    "CLIENT_EXCLUDE_EMPLOYEE": "",
                    "EMP_129": "",
                    "RandomQuesCode2": "",
                    "RandomQuesCode3": "",
                    "RandomQuesCode4": "",
                    "RandomQuesCode5": "",
                    "RandomQuesCode6": "",
                    "RandomQuesCode7": "",
                    "YOUR_LEVEL": "",
                    "RandomQuesCode8": "",
                    "RandomQuesCode9": "",
                    "MDA_001": "3",
                    "RandomQuesCode1": "",
                    "POS_CLASS": "",
                    "YOUR_CODE": "",
                    "EMP_125": "",
                    "POS_CODE": "",
                    "YOUR_GRADE": ""
                },
                {
                    "YOUR_OTHER": "",
                    "YOUR_TITLE": "Accounting Clerk",
                    "RandomQuesCode10": "o",
                    "YOUR_EEID": "10",
                    "RANDOM": "1400",
                    "EMP_128": "",
                    "CLIENT_EXCLUDE_EMPLOYEE": "",
                    "EMP_129": "16800",
                    "RandomQuesCode2": "7/7/11",
                    "RandomQuesCode3": "a",
                    "RandomQuesCode4": "468",
                    "RandomQuesCode5": "656",
                    "RandomQuesCode6": "22",
                    "RandomQuesCode7": "66",
                    "YOUR_LEVEL": "MM",
                    "RandomQuesCode8": "26",
                    "RandomQuesCode9": "",
                    "MDA_001": "3",
                    "RandomQuesCode1": "26",
                    "POS_CLASS": "54",
                    "YOUR_CODE": "ADM001",
                    "EMP_125": "",
                    "POS_CODE": "FIN.06.001.S20",
                    "YOUR_GRADE": "A"
                }
            ]
        },
        {
            "sectionStructure": {
                "columns": [
                    {
                        "code": "YOUR_EEID",
                        "hidden": false,
                        "dataType": "string",
                        "validations": [
                            {
                                "dependentColumns": [],
                                "expression": "ISBLANK(this.YOUR_EEID);",
                                "errorType": "ERROR",
                                "parameter": "",
                                "validationType": "expression",
                                "mda": "exclude_row",
                                "_id": "5a6c69823a51580018605a78",
                                "category": "input_data"
                            }
                        ],
                        "questionType": "text"
                    },
                    {
                        "code": "YOUR_TITLE",
                        "hidden": false,
                        "dataType": "string",
                        "validations": [],
                        "questionType": "text"
                    },
                    {
                        "code": "RandomQuesCode1",
                        "hidden": false,
                        "dataType": "int",
                        "validations": [
                            {
                                "dependentColumns": [],
                                "expression": "this.RandomQuesCode1<10;",
                                "errorType": "ERROR",
                                "parameter": "",
                                "validationType": "expression",
                                "mda": "",
                                "_id": "5a671aa71f1d39001606c8cf",
                                "category": "input_data"
                            },
                            {
                                "dependentColumns": [],
                                "expression": "ISBLANK(this.RandomQuesCode1);",
                                "errorType": "ALERT",
                                "parameter": "",
                                "validationType": "expression",
                                "mda": "",
                                "_id": "5a71ba82ce685b00183e3eaf",
                                "category": "input_data"
                            }
                        ],
                        "questionType": "integer"
                    },
                    {
                        "code": "RandomQuesCode2",
                        "hidden": false,
                        "dataType": "date",
                        "validations": [
                            {
                                "dependentColumns": [],
                                "expression": "YEAR(TO_DATE(this.RandomQuesCode2,\"yyyy-MM-dd\"))<2017;",
                                "errorType": "ALERT",
                                "parameter": "",
                                "validationType": "expression",
                                "mda": "",
                                "_id": "5a66fbf6653d75001801c4a8",
                                "category": "input_data"
                            }
                        ],
                        "questionType": "date"
                    },
                    {
                        "code": "RandomQuesCode3",
                        "hidden": false,
                        "dataType": "string",
                        "options": {
                            "items": [
                                {
                                    "displayName": "a",
                                    "value": "a"
                                },
                                {
                                    "displayName": "b",
                                    "value": "b"
                                },
                                {
                                    "displayName": "c",
                                    "value": "c"
                                }
                            ]
                        },
                        "validations": [],
                        "questionType": "dropdown"
                    },
                    {
                        "code": "RandomQuesCode4",
                        "hidden": false,
                        "dataType": "double",
                        "validations": [],
                        "questionType": "double"
                    },
                    {
                        "code": "RandomQuesCode5",
                        "hidden": false,
                        "dataType": "int",
                        "validations": [],
                        "questionType": "integer"
                    },
                    {
                        "code": "RandomQuesCode6",
                        "hidden": false,
                        "dataType": "int",
                        "validations": [
                            {
                                "dependentColumns": [],
                                "expression": "this.RandomQuesCode6>50;",
                                "errorType": "ENHANCEMENT",
                                "validationType": "expression",
                                "parameter": "",
                                "_id": "5a44daa2fc42f1001749c443",
                                "category": "input_data"
                            }
                        ],
                        "questionType": "integer"
                    },
                    {
                        "code": "RandomQuesCode7",
                        "hidden": false,
                        "dataType": "int",
                        "validations": [],
                        "questionType": "integer"
                    },
                    {
                        "code": "RandomQuesCode8",
                        "hidden": false,
                        "dataType": "int",
                        "validations": [],
                        "questionType": "integer"
                    },
                    {
                        "code": "RandomQuesCode9",
                        "hidden": false,
                        "dataType": "double",
                        "validations": [],
                        "questionType": "double"
                    },
                    {
                        "code": "RandomQuesCode10",
                        "hidden": false,
                        "dataType": "string",
                        "options": {
                            "items": [
                                {
                                    "displayName": "m",
                                    "value": "m"
                                },
                                {
                                    "displayName": "n",
                                    "value": "n"
                                },
                                {
                                    "displayName": "o",
                                    "value": "o"
                                }
                            ]
                        },
                        "validations": [
                            {
                                "dependentColumns": [],
                                "mdaExpression": "",
                                "expression": "FIND_IN_SET(this.RandomQuesCode10,[\"m\"]);",
                                "errorType": "ERROR",
                                "parameter": "",
                                "validationType": "expression",
                                "_id": "5a54b466d268d600188aba3a",
                                "category": "input_data"
                            }
                        ],
                        "questionType": "radio_buttons"
                    },
                    {
                        "code": "POS_CLASS",
                        "hidden": false,
                        "dataType": "int",
                        "validations": [],
                        "questionType": "integer"
                    },
                    {
                        "code": "YOUR_CODE",
                        "hidden": false,
                        "dataType": "string",
                        "validations": [],
                        "questionType": "text"
                    },
                    {
                        "code": "YOUR_LEVEL",
                        "hidden": false,
                        "dataType": "string",
                        "validations": [],
                        "questionType": "text"
                    },
                    {
                        "code": "YOUR_GRADE",
                        "hidden": false,
                        "dataType": "string",
                        "validations": [],
                        "questionType": "text"
                    },
                    {
                        "code": "POS_CODE",
                        "hidden": false,
                        "dataType": "string",
                        "validations": [
                            {
                                "dependentColumns": [],
                                "expression": "ISBLANK(this.YOUR_TITLE) && ISBLANK(this.POS_CODE);",
                                "errorType": "ERROR",
                                "parameter": "",
                                "validationType": "expression",
                                "mda": "",
                                "_id": "5a704c350819f80017f0d08c",
                                "category": "file_acceptance"
                            }
                        ],
                        "questionType": "text"
                    },
                    {
                        "code": "YOUR_OTHER",
                        "hidden": false,
                        "dataType": "string",
                        "validations": [],
                        "questionType": "text"
                    },
                    {
                        "code": "MDA_001",
                        "hidden": false,
                        "dataType": "int",
                        "validations": [
                            {
                                "maxAlert": 15,
                                "minAlert": 10,
                                "dependentColumns": [],
                                "minError": 5,
                                "maxError": 20,
                                "validationType": "range",
                                "_id": "5a1eceac523efc00172e00f5",
                                "mda": "5;",
                                "category": "input_data"
                            }
                        ],
                        "questionType": "integer"
                    },
                    {
                        "code": "RANDOM",
                        "hidden": false,
                        "dataType": "string",
                        "validations": [],
                        "questionType": "text"
                    },
                    {
                        "code": "CLIENT_EXCLUDE_EMPLOYEE",
                        "hidden": true,
                        "dataType": "string",
                        "validations": [],
                        "questionType": "text"
                    },
                    {
                        "code": "EMP_125",
                        "hidden": false,
                        "dataType": "double",
                        "validations": [
                            {
                                "dependentColumns": [],
                                "expression": "FIND_IN_SET(contextData.ctryCode,[\"BD\",\"CN\",\"HK\",\"ID\",\"IN\",\"JP\",\"KH\",\"KR\",\"LK\",\"MM\",\"MY\",\"PH\",\"PK\",\"SG\",\"TH\",\"TW\",\"VN\",\"BY\"]) AND ISBLANK(this.EMP_125);",
                                "errorType": "ERROR",
                                "parameter": "",
                                "validationType": "expression",
                                "mda": "exclude_row",
                                "_id": "5a72b4bdd5df3a0017ab7cdb",
                                "category": "input_data"
                            }
                        ],
                        "questionType": "double"
                    },
                    {
                        "code": "EMP_128",
                        "hidden": false,
                        "dataType": "double",
                        "validations": [
                            {
                                "maxAlert": 16,
                                "minAlert": 12,
                                "dependentColumns": [],
                                "minError": 12,
                                "maxError": 16,
                                "validationType": "range",
                                "mda": "12;",
                                "_id": "59f193ce1b74370015235856",
                                "category": "input_data"
                            },
                            {
                                "dependentColumns": [],
                                "expression": "ISBLANK(this.EMP_128);",
                                "errorType": "ERROR",
                                "parameter": "",
                                "validationType": "expression",
                                "mda": "12;",
                                "_id": "5a6c63db4bbbbd00182bf379",
                                "category": "input_data"
                            }
                        ],
                        "questionType": "double"
                    },
                    {
                        "code": "EMP_129",
                        "hidden": false,
                        "dataType": "double",
                        "validations": [
                            {
                                "dependentColumns": [],
                                "expression": "FIND_IN_SET(contextData.ctryCode,[\"AT\",\"BE\",\"BG\",\"CH\",\"CZ\",\"DE\",\"DK\",\"EE\",\"ES\",\"FI\",\"FR\",\"GB\",\"GR\",\"HR\",\"HU\",\"IE\",\"IT\",\"KZ\",\"LT\",\"LV\",\"NL\",\"NO\",\"PL\",\"PT\",\"RO\",\"RS\",\"RU\",\"SE\",\"SI\",\"SK\",\"TR\",\"UA\"]) AND ISBLANK(this.EMP_125) AND ISBLANK(this.EMP_129);",
                                "errorType": "ERROR",
                                "parameter": "",
                                "validationType": "expression",
                                "mda": "exclude_row",
                                "_id": "5a72b46fd5df3a0017ab7cda",
                                "category": "input_data"
                            },
                            {
                                "dependentColumns": [],
                                "expression": "this.GZ134 < 300;",
                                "errorType": "ERROR",
                                "parameter": "",
                                "validationType": "expression",
                                "_id": "5a25c0f711825f0015c3032c",
                                "category": "input_data"
                            },
                            {
                                "dependentColumns": [],
                                "expression": "ratio = 100*(this.EMP_129 /  this.EMP_131);\nEXP_SALINFLATION = NVL(LOOK_UP_CHECK(\"country\",\"CTX_CTRY_CODE = contextData.ctryCode\",\"SALARY_INFLATION\"),0);\n\n(this.EMP_042 == \"N\" OR ISBLANK(this.EMP_042))\n AND this.EMP_131 > 0 AND  this.EMP_129 > 0 \n AND ( (ratio  - 100) < -5   OR ( (ratio - 100) > (EXP_SALINFLATION * 100 + 20 )) ) ;",
                                "errorType": "ALERT",
                                "validationType": "expression",
                                "parameter": "",
                                "_id": "5a575abc648a740017e233b8",
                                "category": "input_data"
                            },
                            {
                                "dependentColumns": [],
                                "expression": "this.EXP_COMP1 > 0;",
                                "errorType": "ALERT",
                                "validationType": "expression",
                                "parameter": "",
                                "_id": "5a38e78ba70fc400160adeef",
                                "category": "input_data"
                            },
                            {
                                "dependentColumns": [],
                                "expression": "this.CAREER_LEVEL != 1;",
                                "errorType": "ALERT",
                                "parameter": "",
                                "validationType": "expression",
                                "_id": "5a2686cf2565f500154a5960",
                                "category": "input_data"
                            },
                            {
                                "dependentColumns": [],
                                "expression": "FIND_IN_SET(contextData.ctryCode,[\"AT\",\"BE\",\"BG\",\"CH\",\"CZ\",\"DE\",\"DK\",\"EE\",\"ES\",\"FI\",\"FR\",\"GB\",\"GR\",\"HR\",\"HU\",\"IE\",\"IT\",\"KZ\",\"LT\",\"LV\",\"NL\",\"NO\",\"PL\",\"PT\",\"RO\",\"RS\",\"RU\",\"SE\",\"SI\",\"SK\",\"TR\",\"UA\"]) AND ISBLANK(this.EMP_125) AND ISBLANK(this.EMP_129);",
                                "errorType": "ERROR",
                                "parameter": "",
                                "validationType": "expression",
                                "mda": "",
                                "_id": "5a72b46fd5df3a0017ab7cd9",
                                "category": "file_acceptance"
                            },
                            {
                                "dependentColumns": [],
                                "expression": "ISBLANK(this.EMP_129) && ISBLANK(this.EMP_130);",
                                "errorType": "ERROR",
                                "parameter": "",
                                "validationType": "expression",
                                "mda": "exclude_row",
                                "_id": "5a6c6a9a3a51580018605a7b",
                                "category": "input_data"
                            },
                            {
                                "dependentColumns": [],
                                "expression": "contextData.ctryCode == â\u0080\u009cUSâ\u0080\u009d AND ISBLANK(this.HOURLY_RATE) AND ISBLANK(this.EMP_129);",
                                "errorType": "ERROR",
                                "validationType": "expression",
                                "parameter": "",
                                "_id": "5a7034889197040018ac4228",
                                "mda": "",
                                "category": "file_acceptance"
                            },
                            {
                                "dependentColumns": [],
                                "expression": "contextData.ctryCode == â\u0080\u009cUSâ\u0080\u009d AND ISBLANK(this.HOURLY_RATE) AND ISBLANK(this.EMP_129);",
                                "errorType": "ERROR",
                                "parameter": "",
                                "validationType": "expression",
                                "mda": "exclude_row",
                                "_id": "5a6f336855b5ad0018ec0073",
                                "category": "input_data"
                            }
                        ],
                        "questionType": "double"
                    }
                ]
            },
            "otherSectionsData": {},
            "contextData": {
                "uniqueIdColumnCode": "YOUR_EEID",
                "companyId": "5a995d8146c3ac7d938ffd3b",
                "campaignId": "5a166726322cfb00185e6da4",
                "grpCode": "",
                "companyName": "ABC",
                "cpyCode": "",
                "industry": {
                    "superSector": "CH",
                    "sector": "209"
                },
                "sectionId": "RandomSectionCode1",
                "ctryCode": "AL",
                "missing_eeid": false
            },
            "data": [
                {
                    "YOUR_TITLE": "",
                    "RandomQuesCode10": "",
                    "YOUR_EEID": "11",
                    "RANDOM": "",
                    "CLIENT_EXCLUDE_EMPLOYEE": "",
                    "EMP_129": "",
                    "RandomQuesCode2": "",
                    "RandomQuesCode3": "",
                    "RandomQuesCode4": "",
                    "RandomQuesCode5": "",
                    "RandomQuesCode6": "",
                    "RandomQuesCode7": "",
                    "YOUR_LEVEL": "",
                    "RandomQuesCode8": "",
                    "RandomQuesCode9": "",
                    "MDA_001": "3",
                    "RandomQuesCode1": "",
                    "POS_CLASS": "",
                    "YOUR_CODE": "",
                    "POS_CODE": "",
                    "YOUR_GRADE": ""
                },
                {
                    "YOUR_TITLE": "Accountant",
                    "RandomQuesCode10": "m",
                    "YOUR_EEID": "12",
                    "RANDOM": "1900",
                    "CLIENT_EXCLUDE_EMPLOYEE": "",
                    "EMP_129": "22800",
                    "RandomQuesCode2": "7/7/25",
                    "RandomQuesCode3": "a",
                    "RandomQuesCode4": "222",
                    "RandomQuesCode5": "44",
                    "RandomQuesCode6": "104",
                    "RandomQuesCode7": "44",
                    "YOUR_LEVEL": "T40",
                    "RandomQuesCode8": "22",
                    "RandomQuesCode9": "",
                    "MDA_001": "3",
                    "RandomQuesCode1": "22",
                    "POS_CLASS": "51",
                    "YOUR_CODE": "ADM002",
                    "POS_CODE": "FIN.06.001.P20",
                    "YOUR_GRADE": "1"
                },
                {
                    "YOUR_TITLE": "",
                    "RandomQuesCode10": "",
                    "YOUR_EEID": "13",
                    "RANDOM": "",
                    "CLIENT_EXCLUDE_EMPLOYEE": "",
                    "EMP_129": "",
                    "RandomQuesCode2": "",
                    "RandomQuesCode3": "",
                    "RandomQuesCode4": "",
                    "RandomQuesCode5": "",
                    "RandomQuesCode6": "",
                    "RandomQuesCode7": "",
                    "YOUR_LEVEL": "",
                    "RandomQuesCode8": "",
                    "RandomQuesCode9": "",
                    "MDA_001": "3",
                    "RandomQuesCode1": "",
                    "POS_CLASS": "",
                    "YOUR_CODE": "",
                    "POS_CODE": "",
                    "YOUR_GRADE": ""
                },
                {
                    "YOUR_TITLE": "Accountant",
                    "RandomQuesCode10": "n",
                    "YOUR_EEID": "14",
                    "RANDOM": "1100",
                    "CLIENT_EXCLUDE_EMPLOYEE": "",
                    "EMP_129": "13200",
                    "RandomQuesCode2": "7/7/26",
                    "RandomQuesCode3": "b",
                    "RandomQuesCode4": "3434",
                    "RandomQuesCode5": "66",
                    "RandomQuesCode6": "105",
                    "RandomQuesCode7": "22",
                    "YOUR_LEVEL": "T40",
                    "RandomQuesCode8": "23",
                    "RandomQuesCode9": "",
                    "MDA_001": "3",
                    "RandomQuesCode1": "23",
                    "POS_CLASS": "51",
                    "YOUR_CODE": "ADM002",
                    "POS_CODE": "FIN.06.001.P20",
                    "YOUR_GRADE": "1"
                },
                {
                    "YOUR_TITLE": "",
                    "RandomQuesCode10": "",
                    "YOUR_EEID": "15",
                    "RANDOM": "",
                    "CLIENT_EXCLUDE_EMPLOYEE": "",
                    "EMP_129": "",
                    "RandomQuesCode2": "",
                    "RandomQuesCode3": "",
                    "RandomQuesCode4": "",
                    "RandomQuesCode5": "",
                    "RandomQuesCode6": "",
                    "RandomQuesCode7": "",
                    "YOUR_LEVEL": "",
                    "RandomQuesCode8": "",
                    "RandomQuesCode9": "",
                    "MDA_001": "3",
                    "RandomQuesCode1": "",
                    "POS_CLASS": "",
                    "YOUR_CODE": "",
                    "POS_CODE": "",
                    "YOUR_GRADE": ""
                },
                {
                    "YOUR_TITLE": "Accountant",
                    "RandomQuesCode10": "m",
                    "YOUR_EEID": "16",
                    "RANDOM": "",
                    "CLIENT_EXCLUDE_EMPLOYEE": "",
                    "EMP_129": "11400",
                    "RandomQuesCode2": "7/7/27",
                    "RandomQuesCode3": "c",
                    "RandomQuesCode4": "4334",
                    "RandomQuesCode5": "6",
                    "RandomQuesCode6": "106",
                    "RandomQuesCode7": "33",
                    "YOUR_LEVEL": "T40",
                    "RandomQuesCode8": "24",
                    "RandomQuesCode9": "",
                    "MDA_001": "3",
                    "RandomQuesCode1": "24",
                    "POS_CLASS": "51",
                    "YOUR_CODE": "ADM002",
                    "POS_CODE": "FIN.06.001.P20",
                    "YOUR_GRADE": "1"
                },
                {
                    "YOUR_TITLE": "",
                    "RandomQuesCode10": "",
                    "YOUR_EEID": "17",
                    "RANDOM": "",
                    "CLIENT_EXCLUDE_EMPLOYEE": "",
                    "EMP_129": "",
                    "RandomQuesCode2": "",
                    "RandomQuesCode3": "",
                    "RandomQuesCode4": "",
                    "RandomQuesCode5": "",
                    "RandomQuesCode6": "",
                    "RandomQuesCode7": "",
                    "YOUR_LEVEL": "",
                    "RandomQuesCode8": "",
                    "RandomQuesCode9": "",
                    "MDA_001": "3",
                    "RandomQuesCode1": "",
                    "POS_CLASS": "",
                    "YOUR_CODE": "",
                    "POS_CODE": "",
                    "YOUR_GRADE": ""
                },
                {
                    "YOUR_TITLE": "Accounting Clerk",
                    "RandomQuesCode10": "n",
                    "YOUR_EEID": "18",
                    "RANDOM": "1800",
                    "CLIENT_EXCLUDE_EMPLOYEE": "",
                    "EMP_129": "21600",
                    "RandomQuesCode2": "7/7/28",
                    "RandomQuesCode3": "d",
                    "RandomQuesCode4": "23",
                    "RandomQuesCode5": "4",
                    "RandomQuesCode6": "107",
                    "RandomQuesCode7": "65",
                    "YOUR_LEVEL": "MM",
                    "RandomQuesCode8": "25",
                    "RandomQuesCode9": "",
                    "MDA_001": "3",
                    "RandomQuesCode1": "25",
                    "POS_CLASS": "52",
                    "YOUR_CODE": "ADM001",
                    "POS_CODE": "FIN.06.001.S20",
                    "YOUR_GRADE": "A"
                },
                {
                    "YOUR_TITLE": "",
                    "RandomQuesCode10": "",
                    "YOUR_EEID": "19",
                    "RANDOM": "",
                    "CLIENT_EXCLUDE_EMPLOYEE": "",
                    "EMP_129": "",
                    "RandomQuesCode2": "",
                    "RandomQuesCode3": "",
                    "RandomQuesCode4": "",
                    "RandomQuesCode5": "",
                    "RandomQuesCode6": "",
                    "RandomQuesCode7": "",
                    "YOUR_LEVEL": "",
                    "RandomQuesCode8": "",
                    "RandomQuesCode9": "",
                    "MDA_001": "3",
                    "RandomQuesCode1": "",
                    "POS_CLASS": "",
                    "YOUR_CODE": "",
                    "POS_CODE": "",
                    "YOUR_GRADE": ""
                },
                {
                    "YOUR_TITLE": "Accounting Clerk",
                    "RandomQuesCode10": "o",
                    "YOUR_EEID": "20",
                    "RANDOM": "1400",
                    "CLIENT_EXCLUDE_EMPLOYEE": "",
                    "EMP_129": "16800",
                    "RandomQuesCode2": "7/7/11",
                    "RandomQuesCode3": "a",
                    "RandomQuesCode4": "468",
                    "RandomQuesCode5": "656",
                    "RandomQuesCode6": "22",
                    "RandomQuesCode7": "66",
                    "YOUR_LEVEL": "MM",
                    "RandomQuesCode8": "26",
                    "RandomQuesCode9": "",
                    "MDA_001": "3",
                    "RandomQuesCode1": "26",
                    "POS_CLASS": "54",
                    "YOUR_CODE": "ADM001",
                    "POS_CODE": "FIN.06.001.S20",
                    "YOUR_GRADE": "A"
                }
            ]
        }
    ]
}