YOUR_EEID,POS_CODE,POS_TITLE,OLD_POSCODE,OLD_POSTITLE,EMP_010,LIBSPEC_FLAG1,YOUR_TITLE,YOUR_CODE,YOUR_LEVEL,YOUR_GRADE,YOUR_OTHER,EMP_026,POS_CLASS,EMP_031,EMP_036,EMP_037,EMP_038,EMP_042,EMP_044,EMP_047,EMP_124,EMP_125,EMP_128,EMP_129,EMP_131,EMP_172,EMP_185,EMP_221,EMP_233,EMP_236,EMP_238,EMP_234,EMP_240,EMP_244,EMP_242,EMP_250,EMP_278,EMP_280,EMP_281,EMP_282,EMP_283,EMP_284,EMP_285,EMP_379,EMP_387,EMP_388,EMP_391,EMP_392,EMP_394,EMP_397,EMP_402,EMP_403,EMP_404,SYSTEM_EXCLUDE_EMPLOYEE,CLIENT_EXCLUDE_EMPLOYEE
Employee identifier,Mercer benchmark code,Mercer position title,Previous year job code (for reference only),Previous year job title (for reference only),Therapeutic area flag,"Mercer Job Library specialty flags, 
level 1 (for specific jobs)
",Job title within your organization,Internal job code ,Job level within your organization,Job grade within your organization ,Other unique job identifiers used by your organization,Organization's  reports to position title,"IPE Position Class (current year) (if you do not have an IPE license, please leave blank)",Revenue for the business this role is in (in millions US dollars),Geographic scope of role,Year of birth,Year of hire,Has the employee changed roles since last year?,Gender,"Employee's work location (city, state, and region)",Employee salary currency,Monthly base salary (equivalent to full-time employment),Number of months paid,Annual base salary (equivalent to full-time employment),Annual base salary for previous year,Meal or luncheon voucher allowance (annual),Other guaranteed allowances (annual),Transportation allowance (annual),Short-term incentive (variable bonus) eligibility,Short-term incentive (target) as percentage of base salary,"Short-term incentive (maximum), as percentage of base",Short-term incentive (variable bonus) (actual),Sales incentive eligibility,"Sales incentive (target), as percentage of base",Sales incentive amount (actual) (annual),Other short-term incentives (actual),Is this employee eligible for a long-term incentive?,LTI Plan Award #1. Organization LTI Plan Identifier (identifiers provided on the LTI Plans section),LTI Plan Award #1. Number of granted Options/ Shares/ Performance Units or value of granted Cash Award,LTI Plan Award #2. Organization LTI Plan Identifier (identifiers provided on the LTI Plans section),LTI Plan Award #2. Number of granted Options/ Shares/ Performance Units or value of granted Cash Award,LTI Plan Award #3. Organization LTI Plan Identifier (identifiers provided on the LTI Plans section),LTI Plan Award #3. Number of granted Options/ Shares/ Performance Units or value of granted Cash Award,Type of company car benefit ,Allowance paid in lieu of a company car (annual),Replacement term (in years),Motor vehicle manufacturer and model,Other car details/motor vehicle capacity (in c.c.),Purchase price,Lease cost (including VAT) (annual),Percentage of maintenance paid by the organization,Percentage of insurance paid by the organization,Percentage of fuel paid by the organization for private use ,System exclude employee,Client exclude employee
a10,ENS.07.014.E20,Technical Project Management: Web Development - Entry Professional  (P1),,,,,Technical Project Management: Web Development - Entry Professional  (P1),,,,,,,,Globa,,,Y,M,Bruss,EUR,2000,12,,,,,,nie,,,,,,,,,,,,,,,Not eligible,,,Audi - A4,,,,,,,,
a11,ENS.07.014.E20,Technical Project Management: Web Development - Entry Professional  (P1),,,,,Technical Project Management: Web Development - Entry Professional  (P1),,,,,,,,egional,,,TRUE,male,new ,EUR,2000,12,,,,,,niet ,,,,,,,,,,,,,,,Not elig,,,Audi,,,,,,,,
a12,ENS.07.014.E20,Technical Project Management: Web Development - Entry Professional  (P1),,,,,Technical Project Management: Web Development - Entry Professional  (P1),,,,,,,,10,,,1,Femal,York,EUR,2000,12,,,,,,NOOO,,,,,,,,,,,,,,,Company car,,,Audii,,,,,,,,
a13,ENS.07.014.E20,Technical Project Management: Web Development - Entry Professional  (P1),,,,,Technical Project Management: Web Development - Entry Professional  (P1),,,,,,,,not applicable,,,YES (Y),F,Brussels,EUR,2000,12,,,,,,no,,,,,,,,,,,,,,,cash,,,Captiva,,,,,,,,
a14,ENS.07.014.E20,Technical Project Management: Web Development - Entry Professional  (P1),,,,,Technical Project Management: Web Development - Entry Professional  (P1),,,,,,,,1 country,,,y,Woman,,EUR,2000,12,,,,,,,,,,,,,,,,,,,,,Not applicable,,,,,,,,,,,
a15,ENS.07.014.E20,Technical Project Management: Web Development - Entry Professional  (P1),,,,,Technical Project Management: Web Development - Entry Professional  (P1),,,,,,,,,,,yes,Man,,EUR,2000,12,,,,,,,,,,,,,,,,,,,,,na,,,,,,,,,,,
a16,ENS.07.014.E20,Technical Project Management: Web Development - Entry Professional  (P1),,,,,Technical Project Management: Web Development - Entry Professional  (P1),,,,,,,,,,,YY,Feemale,,EUR,2000,12,,,,,,,,,,,,,,,,,,,,,allowance in lieu of company car,,,,,,,,,,,
a17,ENS.07.014.E20,Technical Project Management: Web Development - Entry Professional  (P1),,,,,Technical Project Management: Web Development - Entry Professional  (P1),,,,,,,,,,,,Black,,EUR,2000,12,,,,,,,,,,,,,,,,,,,,,,,,,,,,,,,,
a18,ENS.07.014.E20,Technical Project Management: Web Development - Entry Professional  (P1),,,,,Technical Project Management: Web Development - Entry Professional  (P1),,,,,,,,,,,,,,EUR,2000,12,,,,,,,,,,,,,,,,,,,,,,,,,,,,,,,,
a19,ENS.07.014.E20,Technical Project Management: Web Development - Entry Professional  (P1),,,,,Technical Project Management: Web Development - Entry Professional  (P1),,,,,,,,,,,YES,White,,EUR,2000,12,,,,,,,,,,,,,,,,,,,,,,,,,,,,,,,,
a20,ENS.07.014.E20,Technical Project Management: Web Development - Entry Professional  (P1),,,,,Technical Project Management: Web Development - Entry Professional  (P1),,,,,,,,,,,Oui,,,EUR,2000,12,,,,,,,,,,,,,,,,,,,,,,,,,,,,,,,,
a21,ENS.07.014.E20,Technical Project Management: Web Development - Entry Professional  (P1),,,,,Technical Project Management: Web Development - Entry Professional  (P1),,,,,,,,,,,OUI,,,EUR,2000,12,,,,,,,,,,,,,,,,,,,,,,,,,,,,,,,,
a22,ENS.07.014.E20,Technical Project Management: Web Development - Entry Professional  (P1),,,,,Technical Project Management: Web Development - Entry Professional  (P1),,,,,,,,,,,FALSE,,,EUR,2000,12,,,,,,,,,,,,,,,,,,,,,,,,,,,,,,,,
a23,ENS.07.014.E20,Technical Project Management: Web Development - Entry Professional  (P1),,,,,Technical Project Management: Web Development - Entry Professional  (P1),,,,,,,,,,,No (N),,,EUR,2000,12,,,,,,,,,,,,,,,,,,,,,,,,,,,,,,,,
a24,ENS.07.014.E20,Technical Project Management: Web Development - Entry Professional  (P1),,,,,Technical Project Management: Web Development - Entry Professional  (P1),,,,,,,,,,,n,,,EUR,2000,12,,,,,,,,,,,,,,,,,,,,,,,,,,,,,,,,
a25,ENS.07.014.E20,Technical Project Management: Web Development - Entry Professional  (P1),,,,,Technical Project Management: Web Development - Entry Professional  (P1),,,,,,,,,,,no,,,EUR,2000,12,,,,,,,,,,,,,,,,,,,,,,,,,,,,,,,,
a26,ENS.07.014.E20,Technical Project Management: Web Development - Entry Professional  (P1),,,,,Technical Project Management: Web Development - Entry Professional  (P1),,,,,,,,,,,N = NO,,,EUR,2000,12,,,,,,,,,,,,,,,,,,,,,,,,,,,,,,,,
a27,ENS.07.014.E20,Technical Project Management: Web Development - Entry Professional  (P1),,,,,Technical Project Management: Web Development - Entry Professional  (P1),,,,,,,,,,,NO (N),,,EUR,2000,12,,,,,,,,,,,,,,,,,,,,,,,,,,,,,,,,
a28,ENS.07.014.E20,Technical Project Management: Web Development - Entry Professional  (P1),,,,,Technical Project Management: Web Development - Entry Professional  (P1),,,,,,,,,,,,,,EUR,2000,12,,,,,,,,,,,,,,,,,,,,,,,,,,,,,,,,
a29,ENS.07.014.E20,Technical Project Management: Web Development - Entry Professional  (P1),,,,,Technical Project Management: Web Development - Entry Professional  (P1),,,,,,,,,,,,,,EUR,2000,12,,,,,,,,,,,,,,,,,,,,,,,,,,,,,,,,
a30,ENS.07.014.E20,Technical Project Management: Web Development - Entry Professional  (P1),,,,,Technical Project Management: Web Development - Entry Professional  (P1),,,,,,,,,,,NO,,,EUR,2000,12,,,,,,,,,,,,,,,,,,,,,,,,,,,,,,,,
a31,ENS.07.014.E20,Technical Project Management: Web Development - Entry Professional  (P1),,,,,Technical Project Management: Web Development - Entry Professional  (P1),,,,,,,,,,,Non,,,EUR,2000,12,,,,,,,,,,,,,,,,,,,,,,,,,,,,,,,,
a32,ENS.07.014.E20,Technical Project Management: Web Development - Entry Professional  (P1),,,,,Technical Project Management: Web Development - Entry Professional  (P1),,,,,,,,,,,NON,,,EUR,2000,12,,,,,,,,,,,,,,,,,,,,,,,,,,,,,,,,
a33,ENS.07.014.E20,Technical Project Management: Web Development - Entry Professional  (P1),,,,,Technical Project Management: Web Development - Entry Professional  (P1),,,,,,,,,,,Não,,,EUR,2000,12,,,,,,,,,,,,,,,,,,,,,,,,,,,,,,,,
a34,ENS.07.014.E20,Technical Project Management: Web Development - Entry Professional  (P1),,,,,Technical Project Management: Web Development - Entry Professional  (P1),,,,,,,,,,,não,,,EUR,2000,12,,,,,,,,,,,,,,,,,,,,,,,,,,,,,,,,
