{
    "entities": [
        {
            "data": [
                {
                    "$$id": "5a38fac5b090bfd427e1d73f",
                    "LPALL_157": 1,
                    "LPALL_156": "Y",
                    "CD_480": null,
                    "CD_481": null,
                    "CD_482": [
                        null
                    ],
                    "CD_483": null,
                    "CD_484": null,
                    "CD_485": null,
                    "CD_486": [
                        null
                    ],
                    "CD_487": null,
                    "CD_488": null,
                    "CD_489": null,
                    "CD_490": null,
                    "CD_491": [
                        null
                    ],
                    "CD_492": [
                        null
                    ],
                    "CD_493": null,
                    "CD_494": null,
                    "LPALL_488": null,
                    "LPALL_488_01": [
                        null
                    ],
                    "LPALL_158": null,
                    "LPALL_159": null,
                    "LPALL_160": null,
                    "LPALL_160_01": null,
                    "LPALL_160_02": null,
                    "validationErrors": [
                        {
                            "errorType": "ALERT",
                            "validationType": "eligibility",
                            "field": "LPALL_157",
                            "messageKey": "mosaic-error-message.no_display_label",
                            "messageParams": {
                                "code": "LPALL_157",
                                "displayLabel": ""
                            }
                        }
                    ]
                }
            ],
            "contextData": {
                "uniqueIdColumnCode": "YOUR_EEID",
                "companyId": "5a38bac7fb5280fde42e3827",
                "campaignId": "5a2e46ec1f4bb50015c35c74",
                "grpCode": "999999",
                "companyName": "ABC",
                "cpyCode": "",
                "industry": {
                    "superSector": "CG",
                    "subSector": "2670",
                    "sector": "101"
                },
                "sectionId": "COMPENVALIVISIB02",
                "orgSize": null,
                "ctryCode": "PL"
            }
        }
    ]
}