YOUR_EEID,EMP_233,EMP_234,EMP_235,EMP_236,EMP_238,EXP_SALINFLATION
Employee Identifier,Short-term Incentive (Variable Bonus) Eligibility,Short-term Incentive (Variable Bonus) (Actual),Short Term Incentive over 2017 on 2016 performance (Actual),Short-term Incentive (Target) as Percentage of Base Salary,Short-term Incentive (Maximum) as Percentage of Base,EXP_SALINFLATION
1434567891,Y,,,,,0
1434567892,Y,1,1,,,0
1434567893,N,1,,,,0
1434567894,N,,,,,0
