{
  "entities": [
    {
      "data": [
        {
          "$$id": "5a4356720aee186a3b058911",
          "CD_476": {
            "JOB3": "3",
            "JOB1": "3",
            "JOB2": "3"
          },
          "CD_475": {
            "JOB3": "13",
            "JOB1": "6",
            "JOB2": "11"
          },
          "CD_472": {
            "JOB3": "3",
            "JOB1": "3",
            "JOB2": "3"
          },
          "CD_471": {
            "JOB3": "4",
            "JOB1": "2",
            "JOB2": "3"
          },
          "CD_468": "2",
          "CD_467": "2",
          "CD_073": null,
          "CD_071": null,
          "CD_045": null,
          "CD_044": null,
          "CD_043": null,
          "CD_006A": "1000",
          "VOL_OPBUD": "111",
          "CD_024": "111.00",
          "NUM_EMP": "111",
          "CD_006B": "111"
        }
      ],
      "sectionStructure": {
        "columns": [
          {
            "code": "$$id",
            "dataType": "string",
            "validations": []
          },
          {
            "code": "ORG_TYPE",
            "dataType": "string",
            "questionType": "radio_buttons",
            "validations": [],
            "options": {
              "items": [
                {
                  "value": "10",
                  "displayName": "Parent Company / Independent Company / Corporate"
                },
                {
                  "value": "20",
                  "displayName": "Subsidiary"
                },
                {
                  "value": "30",
                  "displayName": "Multi-Profit Center (Group)"
                },
                {
                  "value": "40",
                  "displayName": "Division"
                },
                {
                  "value": "NA",
                  "displayName": "Not applicable"
                }
              ]
            }
          },
          {
            "code": "ORG_OWN",
            "dataType": "string",
            "questionType": "radio_buttons",
            "validations": [],
            "options": {
              "items": [
                {
                  "value": "10",
                  "displayName": "Publicly Traded"
                },
                {
                  "value": "20",
                  "displayName": "Privately Owned Organization"
                },
                {
                  "value": "50",
                  "displayName": "Not-for-Profit"
                },
                {
                  "value": "40",
                  "displayName": "Joint Venture"
                },
                {
                  "value": "30",
                  "displayName": "State-Owned Enterprise (Crown Corporation)"
                },
                {
                  "value": "NA",
                  "displayName": "Not applicable"
                }
              ]
            }
          },
          {
            "code": "VOL_CURR",
            "dataType": "string",
            "questionType": "dropdown",
            "validations": [],
            "options": {
              "items": [
                {
                  "value": "AUD",
                  "displayName": "Australian dollar (AUD)"
                },
                {
                  "value": "EUR",
                  "displayName": "Euro (EUR)"
                },
                {
                  "value": "USD",
                  "displayName": "United States dollar (USD)"
                },
                {
                  "value": "DZD",
                  "displayName": "Algerian dinar (DZD)"
                },
                {
                  "value": "AOA",
                  "displayName": "Angolan kwanza (AOA)"
                },
                {
                  "value": "ARS",
                  "displayName": "Argentine peso (ARS)"
                },
                {
                  "value": "AMD",
                  "displayName": "Armenian dram (AMD)"
                },
                {
                  "value": "AZN",
                  "displayName": "Azerbaijani manat (AZN)"
                },
                {
                  "value": "BHD",
                  "displayName": "Bahraini dinar (BHD)"
                },
                {
                  "value": "BYN",
                  "displayName": "Belarusian ruble (BYN)"
                },
                {
                  "value": "BYR",
                  "displayName": "Belarusian ruble (BYR)"
                },
                {
                  "value": "BAM",
                  "displayName": "Bosnia and Herzegovina convertible mark (BAM)"
                },
                {
                  "value": "BWP",
                  "displayName": "Botswana pula (BWP)"
                },
                {
                  "value": "BRL",
                  "displayName": "Brazilian real (BRL)"
                },
                {
                  "value": "GBP",
                  "displayName": "British pound (GBP)"
                },
                {
                  "value": "BGN",
                  "displayName": "Bulgarian lev (BGN)"
                },
                {
                  "value": "CAD",
                  "displayName": "Canadian dollar (CAD)"
                },
                {
                  "value": "CLP",
                  "displayName": "Chilean peso (CLP)"
                },
                {
                  "value": "CNY",
                  "displayName": "Chinese yuan (CNY)"
                },
                {
                  "value": "COP",
                  "displayName": "Colombian peso (COP)"
                },
                {
                  "value": "CRC",
                  "displayName": "Costa Rican colón (CRC)"
                },
                {
                  "value": "HRK",
                  "displayName": "Croatian kuna (HRK)"
                },
                {
                  "value": "CZK",
                  "displayName": "Czech koruna (CZK)"
                },
                {
                  "value": "DKK",
                  "displayName": "Danish krone (DKK)"
                },
                {
                  "value": "EGP",
                  "displayName": "Egyptian pound (EGP)"
                },
                {
                  "value": "EEK",
                  "displayName": "Estonian kroon (EEK)"
                },
                {
                  "value": "ETB",
                  "displayName": "Ethiopian birr (ETB)"
                },
                {
                  "value": "GEL",
                  "displayName": "Georgian lari (GEL)"
                },
                {
                  "value": "GHS",
                  "displayName": "Ghanaian cedi (GHS)"
                },
                {
                  "value": "GTQ",
                  "displayName": "Guatemalan quetzal (GTQ)"
                },
                {
                  "value": "GNF",
                  "displayName": "Guinean franc (GNF)"
                },
                {
                  "value": "HKD",
                  "displayName": "Hong Kong dollar (HKD)"
                },
                {
                  "value": "HUF",
                  "displayName": "Hungarian forint (HUF)"
                },
                {
                  "value": "INR",
                  "displayName": "Indian rupee (INR)"
                },
                {
                  "value": "IDR",
                  "displayName": "Indonesian rupiah (IDR)"
                },
                {
                  "value": "IRR",
                  "displayName": "Iranian rial (IRR)"
                },
                {
                  "value": "IQD",
                  "displayName": "Iraqi dinar (IQD)"
                },
                {
                  "value": "ILS",
                  "displayName": "Israeli new shekel (ILS)"
                },
                {
                  "value": "JPY",
                  "displayName": "Japanese yen (JPY)"
                },
                {
                  "value": "JOD",
                  "displayName": "Jordanian dinar (JOD)"
                },
                {
                  "value": "KZT",
                  "displayName": "Kazakhstani tenge (KZT)"
                },
                {
                  "value": "KES",
                  "displayName": "Kenyan shilling (KES)"
                },
                {
                  "value": "KWD",
                  "displayName": "Kuwaiti dinar (KWD)"
                },
                {
                  "value": "LVL",
                  "displayName": "Latvian lats (LVL)"
                },
                {
                  "value": "LSL",
                  "displayName": "Lesotho loti (LSL)"
                },
                {
                  "value": "LYD",
                  "displayName": "Libyan dinar (LYD)"
                },
                {
                  "value": "LTL",
                  "displayName": "Lithuanian litas (LTL)"
                },
                {
                  "value": "MKD",
                  "displayName": "Macedonian denar (MKD)"
                },
                {
                  "value": "MGA",
                  "displayName": "Malagasy ariary (MGA)"
                },
                {
                  "value": "MWK",
                  "displayName": "Malawian kwacha (MWK)"
                },
                {
                  "value": "MYR",
                  "displayName": "Malaysian ringgit (MYR)"
                },
                {
                  "value": "MUR",
                  "displayName": "Mauritian rupee (MUR)"
                },
                {
                  "value": "MXN",
                  "displayName": "Mexican peso (MXN)"
                },
                {
                  "value": "MDL",
                  "displayName": "Moldovan leu (MDL)"
                },
                {
                  "value": "MAD",
                  "displayName": "Moroccan dirham (MAD)"
                },
                {
                  "value": "MZN",
                  "displayName": "Mozambican metical (MZN)"
                },
                {
                  "value": "NAD",
                  "displayName": "Namibian dollar (NAD)"
                },
                {
                  "value": "TWD",
                  "displayName": "New Taiwan dollar (TWD)"
                },
                {
                  "value": "NZD",
                  "displayName": "New Zealand dollar (NZD)"
                },
                {
                  "value": "NGN",
                  "displayName": "Nigerian naira (NGN)"
                },
                {
                  "value": "NOK",
                  "displayName": "Norwegian krone (NOK)"
                },
                {
                  "value": "OMR",
                  "displayName": "Omani rial (OMR)"
                },
                {
                  "value": "PKR",
                  "displayName": "Pakistani rupee (PKR)"
                },
                {
                  "value": "PAB",
                  "displayName": "Panamanian balboa (PAB)"
                },
                {
                  "value": "PEN",
                  "displayName": "Peruvian sol (PEN)"
                },
                {
                  "value": "PHP",
                  "displayName": "Philippine piso (PHP)"
                },
                {
                  "value": "PLN",
                  "displayName": "Polish złoty (PLN)"
                },
                {
                  "value": "QAR",
                  "displayName": "Qatari riyal (QAR)"
                },
                {
                  "value": "RON",
                  "displayName": "Romanian leu (RON)"
                },
                {
                  "value": "RUB",
                  "displayName": "Russian ruble (RUB)"
                },
                {
                  "value": "RWF",
                  "displayName": "Rwandan franc (RWF)"
                },
                {
                  "value": "SVC",
                  "displayName": "Salvadoran colón (SVC)"
                },
                {
                  "value": "SAR",
                  "displayName": "Saudi riyal (SAR)"
                },
                {
                  "value": "RSD",
                  "displayName": "Serbian dinar (RSD)"
                },
                {
                  "value": "SGD",
                  "displayName": "Singapore dollar (SGD)"
                },
                {
                  "value": "ZAR",
                  "displayName": "South African rand (ZAR)"
                },
                {
                  "value": "KRW",
                  "displayName": "South Korean won (KRW)"
                },
                {
                  "value": "SZL",
                  "displayName": "Swazi lilangeni (SZL)"
                },
                {
                  "value": "SEK",
                  "displayName": "Swedish krona (SEK)"
                },
                {
                  "value": "CHF",
                  "displayName": "Swiss franc (CHF)"
                },
                {
                  "value": "SYP",
                  "displayName": "Syrian pound (SYP)"
                },
                {
                  "value": "TZS",
                  "displayName": "Tanzanian shilling (TZS)"
                },
                {
                  "value": "THB",
                  "displayName": "Thai baht (THB)"
                },
                {
                  "value": "TND",
                  "displayName": "Tunisian dinar (TND)"
                },
                {
                  "value": "TRY",
                  "displayName": "Turkish lira (TRY)"
                },
                {
                  "value": "TMT",
                  "displayName": "Turkmenistan manat (TMT)"
                },
                {
                  "value": "UGX",
                  "displayName": "Ugandan shilling (UGX)"
                },
                {
                  "value": "UAH",
                  "displayName": "Ukrainian hryvnia (UAH)"
                },
                {
                  "value": "AED",
                  "displayName": "United Arab Emirates dirham (AED)"
                },
                {
                  "value": "UYU",
                  "displayName": "Uruguayan peso (UYU)"
                },
                {
                  "value": "UZS",
                  "displayName": "Uzbekistani soʻm (UZS)"
                },
                {
                  "value": "VEF",
                  "displayName": "Venezuelan bolívar (VEF)"
                },
                {
                  "value": "VND",
                  "displayName": "Vietnamese đồng (VND)"
                },
                {
                  "value": "YER",
                  "displayName": "Yemeni rial (YER)"
                },
                {
                  "value": "ZMW",
                  "displayName": "Zambian kwacha (ZMW)"
                },
                {
                  "value": "NA",
                  "displayName": "Not applicable"
                }
              ]
            }
          },
          {
            "code": "CD_006A",
            "dataType": "double",
            "questionType": "double",
            "validations": [
              {
                "expression": "ISBLANK(this.CD_006A);",
                "_id": "59a94cefd76e0700152a178a",
                "validationType": "required",
                "isFatal": true,
                "category": "input_data",
                "dependentColumns": [],
                "errorType": "ERROR"
              },
              {
                "_id": "5a12e7af5ec2e200154481ac",
                "validationType": "range",
                "minError": 1000,
                "maxError": 1000000000,
                "category": "input_data",
                "dependentColumns": []
              }
            ]
          },
          {
            "code": "CD_006B",
            "dataType": "double",
            "questionType": "double",
            "validations": [
              {
                "expression": "ISBLANK(this.CD_006B);",
                "_id": "59a95cf0d76e0700152a178d",
                "validationType": "required",
                "category": "input_data",
                "dependentColumns": [],
                "isFatal": true,
                "errorType": "ERROR"
              }
            ]
          },
          {
            "code": "VOL_REV",
            "dataType": "double",
            "questionType": "double",
            "validations": [
              {
                "mda": "clear_value",
                "expression": "",
                "validationType": "range",
                "_id": "59e474cabcedca0016c5de4b",
                "minError": 0,
                "category": "input_data",
                "dependentColumns": []
              },
              {
                "_id": "5a097d8960e31c00142a91a8",
                "validationType": "expression",
                "errorType": "ALERT",
                "expression": "this.VOL_NET_REV == this.VOL_REV;",
                "parameter": "",
                "category": "input_data",
                "dependentColumns": []
              },
              {
                "parameter": "",
                "expression": "REV_FTE_MAX = LOOK_UP_CHECK(\"COUNTRY\",\"CTX_CTRY_CODE = contextData.ctryCode\",\"REV_FTE_MAX\");\n\nISNOTBLANK(this.VOL_REV) AND \nISNOTBLANK(this.NUM_EMP) AND \n(this.VOL_REV) / this.NUM_EMP > REV_FTE_MAX;",
                "errorType": "ERROR",
                "validationType": "expression",
                "_id": "5a2aa7262dbe8d001537115b",
                "category": "input_data",
                "dependentColumns": []
              },
              {
                "parameter": "",
                "expression": "REV_FTE_MIN = LOOK_UP_CHECK(\"COUNTRY\",\"CTX_CTRY_CODE = contextData.ctryCode\",\"REV_FTE_MIN\");\n\nISNOTBLANK(this.VOL_REV) AND \nISNOTBLANK(this.NUM_EMP) AND \n(this.VOL_REV) / this.NUM_EMP < REV_FTE_MIN;",
                "errorType": "ERROR",
                "validationType": "expression",
                "_id": "5a2aa7262dbe8d001537115a",
                "category": "input_data",
                "dependentColumns": []
              }
            ]
          },
          {
            "code": "VOL_OPBUD",
            "dataType": "double",
            "questionType": "double",
            "validations": [
              {
                "mda": "exclude_row",
                "expression": "ISBLANK(this.VOL_OPBUD);",
                "validationType": "required",
                "_id": "5a0ace9ae8fc0a0015e4fe7f",
                "isFatal": true,
                "category": "input_data",
                "dependentColumns": [],
                "errorType": "ERROR"
              },
              {
                "_id": "5a2025e643c22a0015ba9564",
                "validationType": "expression",
                "errorType": "ERROR",
                "expression": "OPBUD_FTE_MAX = LOOK_UP_CHECK(\"COUNTRY\",\"CTX_CTRY_CODE = contextData.ctryCode\",\"OPBUD_FTE_MAX\");\n\nISNOTBLANK(this.VOL_OPBUD) AND \nISNOTBLANK(this.NUM_EMP) AND \n(this.VOL_OPBUD) / this.NUM_EMP > OPBUD_FTE_MAX;",
                "parameter": "",
                "category": "input_data",
                "dependentColumns": []
              },
              {
                "parameter": "",
                "expression": "OPBUD_FTE_MIN = LOOK_UP_CHECK(\"COUNTRY\",\"CTX_CTRY_CODE = contextData.ctryCode\",\"OPBUD_FTE_MIN\");\n\nISNOTBLANK(this.VOL_OPBUD) AND \nISNOTBLANK(this.NUM_EMP) AND \n(this.VOL_OPBUD) / this.NUM_EMP < OPBUD_FTE_MIN;",
                "errorType": "ERROR",
                "validationType": "expression",
                "_id": "5a256bd511825f0015c3032a",
                "category": "input_data",
                "dependentColumns": []
              },
              {
                "parameter": "",
                "expression": "ISBLANK(this.VOL_OPBUD)\nAND ( (FIND_IN_SET(contextData.industry.sector,[177,179])) OR ( (contextData.industry.sector == 176) AND (FIND_IN_SET(NVL(this.ORG_OWN,0),[\"30\",\"50\"])) ) );",
                "errorType": "ALERT",
                "validationType": "expression",
                "_id": "5a256bd511825f0015c30329",
                "category": "input_data",
                "dependentColumns": []
              }
            ]
          },
          {
            "code": "NUM_EMP",
            "dataType": "double",
            "questionType": "double",
            "validations": [
              {
                "_id": "59e9c8e8a811920015bcd59b",
                "validationType": "required",
                "expression": "ISBLANK(this.NUM_EMP);",
                "isFatal": true,
                "category": "input_data",
                "dependentColumns": [],
                "errorType": "ERROR"
              },
              {
                "parameter": "",
                "expression": "VNUM_EMP = LOOK_UP_CHECK(\"VALIDORG\",\"CTX_CTRY_CODE = contextData.ctryCode AND CTX_GRPCODE = contextData.grpCode AND CTX_CPYCODE = contextData.cpyCode\",\"NUM_EMP\");\n\nthis.NUM_EMP > 0 AND NVL(VNUM_EMP, 0) > 0 AND this.NUM_EMP < (VNUM_EMP * 0.8); ",
                "errorType": "ALERT",
                "validationType": "expression",
                "_id": "5a311d759199510015e1481b",
                "category": "input_data",
                "dependentColumns": []
              }
            ]
          },
          {
            "code": "CD_024",
            "dataType": "double",
            "questionType": "double",
            "validations": [
              {
                "isFatal": true,
                "expression": "ISBLANK(this.CD_024);",
                "validationType": "required",
                "_id": "59e9c861a811920015bcd596",
                "category": "input_data",
                "dependentColumns": [],
                "errorType": "ERROR"
              },
              {
                "_id": "59e88c69a811920015bcd49f",
                "validationType": "range",
                "expression": "",
                "minAlert": 0,
                "category": "input_data",
                "dependentColumns": []
              },
              {
                "parameter": "",
                "expression": "ratio = this.CD_024 /  this.NUM_EMP;\n!(ratio >= 0.8 AND ratio <= 1.2);",
                "errorType": "ALERT",
                "validationType": "expression",
                "_id": "5a0f0e3b202289001578b793",
                "category": "input_data",
                "dependentColumns": []
              }
            ]
          },
          {
            "code": "CD_025",
            "dataType": "double",
            "questionType": "double",
            "validations": [
              {
                "_id": "59e88dfea811920015bcd4a8",
                "validationType": "range",
                "minAlert": 0,
                "expression": "",
                "category": "input_data",
                "dependentColumns": []
              },
              {
                "parameter": "",
                "expression": "ratio = this.CD_025 /  this.NUM_EMP;\n!(ratio >= 0.8 AND ratio <= 1.2);",
                "errorType": "ALERT",
                "validationType": "expression",
                "_id": "5a0f0e60202289001578b794",
                "category": "input_data",
                "dependentColumns": []
              }
            ]
          },
          {
            "code": "CO_ACT_PROD",
            "dataType": "string",
            "questionType": "checkboxes",
            "validations": [],
            "options": {
              "items": [
                {
                  "value": "1",
                  "displayName": "Basic Research & Development"
                },
                {
                  "value": "2",
                  "displayName": "Applied Research & Development"
                },
                {
                  "value": "3",
                  "displayName": "Engineering"
                },
                {
                  "value": "4",
                  "displayName": "Procurement / Inbound Logistic"
                },
                {
                  "value": "5",
                  "displayName": "Production"
                },
                {
                  "value": "6",
                  "displayName": "Application / Assembly"
                },
                {
                  "value": "7",
                  "displayName": "Marketing"
                },
                {
                  "value": "8",
                  "displayName": "Sales"
                },
                {
                  "value": "9",
                  "displayName": "Distribution"
                },
                {
                  "value": "10",
                  "displayName": "Service"
                }
              ]
            }
          },
          {
            "code": "CD_248",
            "dataType": "string",
            "questionType": "radio_buttons",
            "validations": [],
            "options": {
              "items": [
                {
                  "value": "Y",
                  "displayName": "Yes"
                },
                {
                  "value": "N",
                  "displayName": "No"
                },
                {
                  "value": "NA",
                  "displayName": "Not applicable"
                }
              ]
            }
          },
          {
            "code": "CD_249",
            "dataType": "string",
            "questionType": "radio_buttons",
            "validations": [],
            "options": {
              "items": [
                {
                  "value": "1",
                  "displayName": "Mercer International Position Evaluation (IPE)"
                },
                {
                  "value": "2",
                  "displayName": "Mercer's Ready Reckoner (IPE)"
                },
                {
                  "value": "3",
                  "displayName": "Towers Watson"
                },
                {
                  "value": "4",
                  "displayName": "Hay Job Evaluation"
                },
                {
                  "value": "5",
                  "displayName": "Aon Hewitt Evaluation"
                },
                {
                  "value": "6",
                  "displayName": "Other"
                },
                {
                  "value": "NA",
                  "displayName": "Not applicable"
                }
              ]
            }
          },
          {
            "code": "CD_250",
            "dataType": "string",
            "questionType": "text",
            "validations": []
          },
          {
            "code": "CD_251",
            "dataType": "string",
            "questionType": "radio_buttons",
            "validations": [],
            "options": {
              "items": [
                {
                  "value": "Y",
                  "displayName": "Yes"
                },
                {
                  "value": "N",
                  "displayName": "No"
                },
                {
                  "value": "NA",
                  "displayName": "Not applicable"
                }
              ]
            }
          },
          {
            "code": "COMPANY_SIZE",
            "dataType": "string",
            "questionType": "dropdown",
            "validations": [],
            "options": {
              "items": [
                {
                  "value": "1",
                  "displayName": "1"
                },
                {
                  "value": "2",
                  "displayName": "2"
                },
                {
                  "value": "3",
                  "displayName": "3"
                },
                {
                  "value": "4",
                  "displayName": "4"
                },
                {
                  "value": "5",
                  "displayName": "5"
                },
                {
                  "value": "6",
                  "displayName": "6"
                },
                {
                  "value": "7",
                  "displayName": "7"
                },
                {
                  "value": "8",
                  "displayName": "8"
                },
                {
                  "value": "9",
                  "displayName": "9"
                },
                {
                  "value": "10",
                  "displayName": "10"
                },
                {
                  "value": "11",
                  "displayName": "11"
                },
                {
                  "value": "12",
                  "displayName": "12"
                },
                {
                  "value": "13",
                  "displayName": "13"
                },
                {
                  "value": "14",
                  "displayName": "14"
                },
                {
                  "value": "15",
                  "displayName": "15"
                },
                {
                  "value": "16",
                  "displayName": "16"
                },
                {
                  "value": "17",
                  "displayName": "17"
                },
                {
                  "value": "18",
                  "displayName": "18"
                },
                {
                  "value": "19",
                  "displayName": "19"
                },
                {
                  "value": "20",
                  "displayName": "20"
                },
                {
                  "value": "NA",
                  "displayName": "Not applicable"
                }
              ]
            }
          },
          {
            "code": "CD_043",
            "dataType": "double",
            "questionType": "percentage",
            "validations": [
              {
                "mda": "clear_value",
                "maxError": 100,
                "minError": 0,
                "validationType": "range",
                "_id": "5a05bdc36462600015da0b8d",
                "category": "input_data",
                "dependentColumns": []
              }
            ],
            "dimensions": [
              "EXEC2_IT",
              "MGMT2_IT",
              "OTHER2_IT"
            ]
          },
          {
            "code": "CD_044",
            "dataType": "double",
            "questionType": "percentage",
            "validations": [
              {
                "mda": "clear_value",
                "maxError": 100,
                "minError": 0,
                "validationType": "range",
                "_id": "5a05c0146462600015da0b8e",
                "category": "input_data",
                "dependentColumns": []
              }
            ],
            "dimensions": [
              "EXEC2_IT",
              "MGMT2_IT",
              "OTHER2_IT"
            ]
          },
          {
            "code": "CD_045",
            "dataType": "double",
            "questionType": "percentage",
            "validations": [
              {
                "mda": "clear_value",
                "maxError": 100,
                "minError": 0,
                "validationType": "range",
                "_id": "5a05c03c6462600015da0b8f",
                "category": "input_data",
                "dependentColumns": []
              }
            ],
            "dimensions": [
              "EXEC2_IT",
              "MGMT2_IT",
              "OTHER2_IT"
            ]
          },
          {
            "code": "CD_071",
            "dataType": "double",
            "questionType": "percentage",
            "validations": [
              {
                "mda": "clear_value",
                "maxError": 300,
                "maxAlert": 300,
                "minError": 0,
                "minAlert": 50,
                "validationType": "range",
                "_id": "5a0d62a22c1ead00153985f8",
                "category": "input_data",
                "dependentColumns": []
              }
            ],
            "dimensions": [
              "OVER3",
              "EXEC3_IT",
              "MGS3_IT",
              "MGJ3_IT",
              "SF3_IT",
              "EMP3_IT",
              "WRK3_IT"
            ]
          },
          {
            "code": "CD_073",
            "dataType": "double",
            "questionType": "percentage",
            "validations": [
              {
                "mda": "clear_value",
                "maxError": 300,
                "maxAlert": 300,
                "minError": 0,
                "minAlert": 50,
                "validationType": "range",
                "_id": "5a0db0bc2c1ead001539860c",
                "category": "input_data",
                "dependentColumns": []
              }
            ],
            "dimensions": [
              "OVER3",
              "EXEC3_IT",
              "MGS3_IT",
              "MGJ3_IT",
              "SF3_IT",
              "EMP3_IT",
              "WRK3_IT"
            ]
          },
          {
            "code": "CD_467",
            "dataType": "string",
            "questionType": "dropdown",
            "validations": [],
            "options": {
              "items": [
                {
                  "value": "1",
                  "displayName": "Administration, Facilities & Secretarial"
                },
                {
                  "value": "2",
                  "displayName": "Asset/Investment Management"
                },
                {
                  "value": "3",
                  "displayName": "Capital Markets/Investment Banking"
                },
                {
                  "value": "4",
                  "displayName": "Communications & Corporate Affairs"
                },
                {
                  "value": "5",
                  "displayName": "Construction"
                },
                {
                  "value": "6",
                  "displayName": "Consumer & Commercial Banking"
                },
                {
                  "value": "7",
                  "displayName": "Creative & Design"
                },
                {
                  "value": "8",
                  "displayName": "Customer Service & Contact Center Operations"
                },
                {
                  "value": "9",
                  "displayName": "Data Analytics/Warehousing & Business Intelligence"
                },
                {
                  "value": "10",
                  "displayName": "Education"
                },
                {
                  "value": "11",
                  "displayName": "Engineering & Science"
                },
                {
                  "value": "12",
                  "displayName": "Finance"
                },
                {
                  "value": "13",
                  "displayName": "General Management"
                },
                {
                  "value": "14",
                  "displayName": "Healthcare/Pharmacy Services"
                },
                {
                  "value": "15",
                  "displayName": "Hospitality (Food Service & Lodging)"
                },
                {
                  "value": "16",
                  "displayName": "Human Resources"
                },
                {
                  "value": "17",
                  "displayName": "Insurance"
                },
                {
                  "value": "18",
                  "displayName": "IT, Telecom & Internet"
                },
                {
                  "value": "19",
                  "displayName": "Legal, Compliance & Audit"
                },
                {
                  "value": "20",
                  "displayName": "Media"
                },
                {
                  "value": "21",
                  "displayName": "Production & Skilled Trades"
                },
                {
                  "value": "22",
                  "displayName": "Project/Program Management"
                },
                {
                  "value": "23",
                  "displayName": "Quality Management"
                },
                {
                  "value": "24",
                  "displayName": "Real Estate"
                },
                {
                  "value": "25",
                  "displayName": "Retail"
                },
                {
                  "value": "26",
                  "displayName": "Sales, Marketing & Product Management"
                },
                {
                  "value": "27",
                  "displayName": "Supply Chain"
                },
                {
                  "value": "28",
                  "displayName": "Trading & Dealing"
                },
                {
                  "value": "NA",
                  "displayName": "Not applicable"
                }
              ]
            }
          },
          {
            "code": "CD_468",
            "dataType": "string",
            "questionType": "radio_buttons",
            "validations": [],
            "options": {
              "items": [
                {
                  "value": "1",
                  "displayName": "All levels"
                },
                {
                  "value": "2",
                  "displayName": "Executive"
                },
                {
                  "value": "3",
                  "displayName": "Management"
                },
                {
                  "value": "4",
                  "displayName": "Professional"
                },
                {
                  "value": "5",
                  "displayName": "Para-Professional"
                },
                {
                  "value": "NA",
                  "displayName": "Not applicable"
                }
              ]
            }
          },
          {
            "code": "CD_471",
            "dataType": "string",
            "questionType": "dropdown",
            "validations": [],
            "options": {
              "items": [
                {
                  "value": "1",
                  "displayName": "Administration, Facilities & Secretarial"
                },
                {
                  "value": "2",
                  "displayName": "Asset/Investment Management"
                },
                {
                  "value": "3",
                  "displayName": "Capital Markets/Investment Banking"
                },
                {
                  "value": "4",
                  "displayName": "Communications & Corporate Affairs"
                },
                {
                  "value": "5",
                  "displayName": "Construction"
                },
                {
                  "value": "6",
                  "displayName": "Consumer & Commercial Banking"
                },
                {
                  "value": "7",
                  "displayName": "Creative & Design"
                },
                {
                  "value": "8",
                  "displayName": "Customer Service & Contact Center Operations"
                },
                {
                  "value": "9",
                  "displayName": "Data Analytics/Warehousing & Business Intelligence"
                },
                {
                  "value": "10",
                  "displayName": "Education"
                },
                {
                  "value": "11",
                  "displayName": "Engineering & Science"
                },
                {
                  "value": "12",
                  "displayName": "Finance"
                },
                {
                  "value": "13",
                  "displayName": "General Management"
                },
                {
                  "value": "14",
                  "displayName": "Healthcare/Pharmacy Services"
                },
                {
                  "value": "15",
                  "displayName": "Hospitality (Food Service & Lodging)"
                },
                {
                  "value": "16",
                  "displayName": "Human Resources"
                },
                {
                  "value": "17",
                  "displayName": "Insurance"
                },
                {
                  "value": "18",
                  "displayName": "IT, Telecom & Internet"
                },
                {
                  "value": "19",
                  "displayName": "Legal, Compliance & Audit"
                },
                {
                  "value": "20",
                  "displayName": "Media"
                },
                {
                  "value": "21",
                  "displayName": "Production & Skilled Trades"
                },
                {
                  "value": "22",
                  "displayName": "Project/Program Management"
                },
                {
                  "value": "23",
                  "displayName": "Quality Management"
                },
                {
                  "value": "24",
                  "displayName": "Real Estate"
                },
                {
                  "value": "25",
                  "displayName": "Retail"
                },
                {
                  "value": "26",
                  "displayName": "Sales, Marketing & Product Management"
                },
                {
                  "value": "27",
                  "displayName": "Supply Chain"
                },
                {
                  "value": "28",
                  "displayName": "Trading & Dealing"
                },
                {
                  "value": "NA",
                  "displayName": "Not applicable"
                }
              ]
            },
            "dimensions": [
              "JOB1",
              "JOB2",
              "JOB3"
            ]
          },
          {
            "code": "CD_472",
            "dataType": "string",
            "questionType": "radio_buttons",
            "validations": [],
            "options": {
              "items": [
                {
                  "value": "1",
                  "displayName": "All levels"
                },
                {
                  "value": "2",
                  "displayName": "Executive"
                },
                {
                  "value": "3",
                  "displayName": "Management"
                },
                {
                  "value": "4",
                  "displayName": "Professional"
                },
                {
                  "value": "5",
                  "displayName": "Para-Professional"
                },
                {
                  "value": "NA",
                  "displayName": "Not applicable"
                }
              ]
            },
            "dimensions": [
              "JOB1",
              "JOB2",
              "JOB3"
            ]
          },
          {
            "code": "CD_475",
            "dataType": "string",
            "questionType": "dropdown",
            "validations": [],
            "options": {
              "items": [
                {
                  "value": "1",
                  "displayName": "Administration, Facilities & Secretarial"
                },
                {
                  "value": "2",
                  "displayName": "Asset/Investment Management"
                },
                {
                  "value": "3",
                  "displayName": "Capital Markets/Investment Banking"
                },
                {
                  "value": "4",
                  "displayName": "Communications & Corporate Affairs"
                },
                {
                  "value": "5",
                  "displayName": "Construction"
                },
                {
                  "value": "6",
                  "displayName": "Consumer & Commercial Banking"
                },
                {
                  "value": "7",
                  "displayName": "Creative & Design"
                },
                {
                  "value": "8",
                  "displayName": "Customer Service & Contact Center Operations"
                },
                {
                  "value": "9",
                  "displayName": "Data Analytics/Warehousing & Business Intelligence"
                },
                {
                  "value": "10",
                  "displayName": "Education"
                },
                {
                  "value": "11",
                  "displayName": "Engineering & Science"
                },
                {
                  "value": "12",
                  "displayName": "Finance"
                },
                {
                  "value": "13",
                  "displayName": "General Management"
                },
                {
                  "value": "14",
                  "displayName": "Healthcare/Pharmacy Services"
                },
                {
                  "value": "15",
                  "displayName": "Hospitality (Food Service & Lodging)"
                },
                {
                  "value": "16",
                  "displayName": "Human Resources"
                },
                {
                  "value": "17",
                  "displayName": "Insurance"
                },
                {
                  "value": "18",
                  "displayName": "IT, Telecom & Internet"
                },
                {
                  "value": "19",
                  "displayName": "Legal, Compliance & Audit"
                },
                {
                  "value": "20",
                  "displayName": "Media"
                },
                {
                  "value": "21",
                  "displayName": "Production & Skilled Trades"
                },
                {
                  "value": "22",
                  "displayName": "Project/Program Management"
                },
                {
                  "value": "23",
                  "displayName": "Quality Management"
                },
                {
                  "value": "24",
                  "displayName": "Real Estate"
                },
                {
                  "value": "25",
                  "displayName": "Retail"
                },
                {
                  "value": "26",
                  "displayName": "Sales, Marketing & Product Management"
                },
                {
                  "value": "27",
                  "displayName": "Supply Chain"
                },
                {
                  "value": "28",
                  "displayName": "Trading & Dealing"
                },
                {
                  "value": "NA",
                  "displayName": "Not applicable"
                }
              ]
            },
            "dimensions": [
              "JOB1",
              "JOB2",
              "JOB3"
            ]
          },
          {
            "code": "CD_476",
            "dataType": "string",
            "questionType": "radio_buttons",
            "validations": [],
            "options": {
              "items": [
                {
                  "value": "1",
                  "displayName": "All levels"
                },
                {
                  "value": "2",
                  "displayName": "Executive"
                },
                {
                  "value": "3",
                  "displayName": "Management"
                },
                {
                  "value": "4",
                  "displayName": "Professional"
                },
                {
                  "value": "5",
                  "displayName": "Para-Professional"
                },
                {
                  "value": "NA",
                  "displayName": "Not applicable"
                }
              ]
            },
            "dimensions": [
              "JOB1",
              "JOB2",
              "JOB3"
            ]
          }
        ]
      },
      "otherSectionsData": {},
      "contextData": {
        "campaignId": "597b474bfe305700157895c0",
        "companyId": "5a43527d0aee186a3b0588f3",
        "companyName": "Test34545",
        "sectionId": "CD_000",
        "grpCode": "",
        "cpyCode": "",
        "ctryCode": "IT",
        "orgSize": null,
        "uniqueIdColumnCode": "YOUR_EEID",
        "industry": {
          "superSector": "LS",
          "sector": "106",
          "subSector": "1050"
        }
      }
    }
  ]
}