timeStamp,elapsed,label,responseCode,threadName,success,bytes,grpThreads,allThreads,Latency,SampleCount,ErrorCount,Hostname,Connect
1512545962561,952,NoFileUpload B17_PE7033_PE7314,200,Thread Group_Prod1 1-1,false,879,1,1,952,1,1,INFPU07042,325
1512545963514,302,NoFileUpload B18_PE7033_PE7314,200,Thread Group_Prod1 1-1,false,521,1,1,302,1,1,INFPU07042,0
1512545963817,307,NoFileUpload B17_PE7044_expression,200,Thread Group_Prod1 1-1,true,516,1,1,307,1,0,INFPU07042,0
1512545964126,308,NoFileUpload B17_PE7044_range,200,Thread Group_Prod1 1-1,true,934,1,1,308,1,0,INFPU07042,0
1512545964512,319,NoFileUpload B17_PE7044_rangeValidationRefTable,200,Thread Group_Prod1 1-1,true,928,1,1,317,1,0,INFPU07042,0
1512545964865,1170,NoFileUpload B17_PE7044_rangeValidationRefTable_dimensions,200,Thread Group_Prod1 1-1,true,967,1,1,1170,1,0,INFPU07042,252
1512545966106,310,FileUpload D10_PE5216,200,Thread Group_Prod1 1-1,true,1364,1,1,309,1,0,INFPU07042,0
1512545966475,629,FileUpload D11_PE6030,200,Thread Group_Prod1 1-1,true,3265,1,1,628,1,0,INFPU07042,0
1512545967147,1173,FileUpload D12_PE6027,200,Thread Group_Prod1 1-1,true,2163,1,1,1172,1,0,INFPU07042,251
1512545968385,1544,FileUpload D12_PE7611,200,Thread Group_Prod1 1-1,true,2418,1,1,1543,1,0,INFPU07042,0
1512545969960,2296,FileUpload D12_PE7611,200,Thread Group_Prod1 1-1,true,1621,1,1,2296,1,0,INFPU07042,254
1512545972280,2063,FileUpload D12_PE7611,200,Thread Group_Prod1 1-1,true,1518,1,1,2063,1,0,INFPU07042,250
1512545974367,2100,FileUpload D12_PE7611,200,Thread Group_Prod1 1-1,true,1586,1,1,2099,1,0,INFPU07042,254
1512545976503,2370,FileUpload D12_PE7611,200,Thread Group_Prod1 1-1,true,2033,1,1,2369,1,0,INFPU07042,254
1512545978885,2371,FileUpload D12_PE7611,200,Thread Group_Prod1 1-1,true,1624,1,1,2371,1,0,INFPU07042,248
1512545981275,2410,FileUpload D12_PE7611,200,Thread Group_Prod1 1-1,true,1624,1,1,2408,1,0,INFPU07042,251
1512545983718,1886,FileUpload D12_PE7611,200,Thread Group_Prod1 1-1,true,2042,1,1,1885,1,0,INFPU07042,251
1512545985646,1283,FileUpload D12_PE7611,200,Thread Group_Prod1 1-1,true,1799,1,1,1282,1,0,INFPU07042,0
1512545986944,1777,FileUpload D12_PE7611,200,Thread Group_Prod1 1-1,true,1754,1,1,1776,1,0,INFPU07042,249
1512545988747,1300,FileUpload D13_PE5691_1Record,200,Thread Group_Prod1 1-1,true,3264,1,1,1299,1,0,INFPU07042,0
1512545990073,2291,FileUpload D15_PE5691_1Record,200,Thread Group_Prod1 1-1,true,3264,1,1,2291,1,0,INFPU07042,248
1512545992366,2087,FileUpload D16_PE7071_1Record,200,Thread Group_Prod1 1-1,true,6396,1,1,2085,1,0,INFPU07042,257
1512545994499,1854,FileUpload D17_PE7071_1Record,200,Thread Group_Prod1 1-1,true,6394,1,1,1852,1,0,INFPU07042,332
1512545996393,1282,FileUpload D18_PE7071_1Record,200,Thread Group_Prod1 1-1,true,6995,1,1,1280,1,0,INFPU07042,0
1512545997712,1790,FileUpload D19_PE7071_1Record,200,Thread Group_Prod1 1-1,false,6995,1,1,1787,1,1,INFPU07042,252
1512545999527,1290,FileUpload D20_PE7071_1Record,200,Thread Group_Prod1 1-1,true,5215,1,1,1288,1,0,INFPU07042,0
1512548905509,897,NoFileUpload B17_PE7033_PE7314,200,Thread Group_Prod1 1-1,true,879,1,1,897,1,0,INFPU07042,328
1512548906408,273,NoFileUpload B18_PE7033_PE7314,200,Thread Group_Prod1 1-1,false,521,1,1,273,1,1,INFPU07042,0
1512548906683,255,NoFileUpload B17_PE7044_expression,200,Thread Group_Prod1 1-1,true,516,1,1,255,1,0,INFPU07042,0
1512548906939,273,NoFileUpload B17_PE7044_range,200,Thread Group_Prod1 1-1,true,934,1,1,273,1,0,INFPU07042,0
1512548907284,311,NoFileUpload B17_PE7044_rangeValidationRefTable,200,Thread Group_Prod1 1-1,true,928,1,1,310,1,0,INFPU07042,0
1512548907642,1075,NoFileUpload B17_PE7044_rangeValidationRefTable_dimensions,200,Thread Group_Prod1 1-1,true,967,1,1,1075,1,0,INFPU07042,245
1512548908782,258,NoFileUpload B17_PE7631,200,Thread Group_Prod1 1-1,true,789,1,1,257,1,0,INFPU07042,0
1512548909071,270,NoFileUpload B17_PE7631_metaData,200,Thread Group_Prod1 1-1,true,570,1,1,269,1,0,INFPU07042,0
1512548909363,286,FileUpload D10_PE5216,200,Thread Group_Prod1 1-1,true,1364,1,1,286,1,0,INFPU07042,0
1512548909728,1210,FileUpload D11_PE6030,200,Thread Group_Prod1 1-1,true,3265,1,1,1209,1,0,INFPU07042,250
1512548911003,525,FileUpload D12_PE6027,200,Thread Group_Prod1 1-1,true,2163,1,1,522,1,0,INFPU07042,0
1512548911573,1302,FileUpload D12_PE7611,200,Thread Group_Prod1 1-1,true,2418,1,1,1302,1,0,INFPU07042,0
1512548912896,1755,FileUpload D12_PE7611,200,Thread Group_Prod1 1-1,true,1621,1,1,1755,1,0,INFPU07042,245
1512548914693,1261,FileUpload D12_PE7611,200,Thread Group_Prod1 1-1,true,1518,1,1,1261,1,0,INFPU07042,0
1512548915979,1789,FileUpload D12_PE7611,200,Thread Group_Prod1 1-1,true,1586,1,1,1789,1,0,INFPU07042,251
1512548917791,1300,FileUpload D12_PE7611,200,Thread Group_Prod1 1-1,true,2033,1,1,1299,1,0,INFPU07042,0
1512548919117,1774,FileUpload D12_PE7611,200,Thread Group_Prod1 1-1,true,1624,1,1,1774,1,0,INFPU07042,248
1512548920914,2653,FileUpload D12_PE7611,200,Thread Group_Prod1 1-1,true,1624,1,1,2653,1,0,INFPU07042,0
1512548923577,3373,FileUpload D12_PE7611,200,Thread Group_Prod1 1-1,true,2042,1,1,3372,1,0,INFPU07042,249
1512548926987,4642,FileUpload D12_PE7611,200,Thread Group_Prod1 1-1,true,1799,1,1,4641,1,0,INFPU07042,1253
1512548931657,3705,FileUpload D12_PE7611,200,Thread Group_Prod1 1-1,true,1754,1,1,3704,1,0,INFPU07042,250
1512548935379,3840,FileUpload D13_PE5691_1Record,200,Thread Group_Prod1 1-1,true,3264,1,1,3838,1,0,INFPU07042,252
1512548939247,3586,FileUpload D15_PE5691_1Record,200,Thread Group_Prod1 1-1,true,3264,1,1,3585,1,0,INFPU07042,324
1512548942834,3141,FileUpload D16_PE7071_1Record,200,Thread Group_Prod1 1-1,true,6396,1,1,3140,1,0,INFPU07042,248
1512548946009,3318,FileUpload D17_PE7071_1Record,200,Thread Group_Prod1 1-1,true,6394,1,1,3316,1,0,INFPU07042,246
1512548949360,3211,FileUpload D18_PE7071_1Record,200,Thread Group_Prod1 1-1,true,6995,1,1,3209,1,0,INFPU07042,245
1512548952597,2582,FileUpload D20_PE7071_1Record,200,Thread Group_Prod1 1-1,true,5215,1,1,2581,1,0,INFPU07042,249
1512552155998,1190,NoFileUpload B17_PE7033_PE7314,200,Thread Group_Prod1 1-1,true,879,1,1,1190,1,0,INFPU07042,323
1512552157190,388,NoFileUpload B18_PE7033_PE7314,200,Thread Group_Prod1 1-1,false,521,1,1,388,1,1,INFPU07042,0
1512552157581,327,NoFileUpload B17_PE7044_expression,200,Thread Group_Prod1 1-1,true,516,1,1,327,1,0,INFPU07042,0
1512552157909,305,NoFileUpload B17_PE7044_range,200,Thread Group_Prod1 1-1,true,934,1,1,304,1,0,INFPU07042,0
1512552158297,1173,NoFileUpload B17_PE7044_rangeValidationRefTable,200,Thread Group_Prod1 1-1,true,928,1,1,1173,1,0,INFPU07042,246
1512552159532,335,NoFileUpload B17_PE7044_rangeValidationRefTable_dimensions,200,Thread Group_Prod1 1-1,true,967,1,1,335,1,0,INFPU07042,0
1512552159933,317,NoFileUpload B17_PE7631,200,Thread Group_Prod1 1-1,false,789,1,1,316,1,1,INFPU07042,0
1512552160278,250,NoFileUpload B17_PE7631_metaData,200,Thread Group_Prod1 1-1,false,570,1,1,250,1,1,INFPU07042,0
1512552160564,778,FileUpload D10_PE5216,200,Thread Group_Prod1 1-1,true,1364,1,1,777,1,0,INFPU07042,252
1512552161416,539,FileUpload D11_PE6030,200,Thread Group_Prod1 1-1,true,3265,1,1,537,1,0,INFPU07042,0
1512552162011,525,FileUpload D12_PE6027,200,Thread Group_Prod1 1-1,true,2163,1,1,524,1,0,INFPU07042,0
1512552162593,2009,FileUpload D12_PE7611,200,Thread Group_Prod1 1-1,true,2418,1,1,2008,1,0,INFPU07042,246
1512552164626,1768,FileUpload D12_PE7611,200,Thread Group_Prod1 1-1,true,1621,1,1,1768,1,0,INFPU07042,245
1512552166431,1292,FileUpload D12_PE7611,200,Thread Group_Prod1 1-1,true,1518,1,1,1292,1,0,INFPU07042,0
1512552167749,1967,FileUpload D12_PE7611,200,Thread Group_Prod1 1-1,true,1586,1,1,1966,1,0,INFPU07042,246
1512552169740,1515,FileUpload D12_PE7611,200,Thread Group_Prod1 1-1,true,2033,1,1,1515,1,0,INFPU07042,0
1512552171287,2107,FileUpload D12_PE7611,200,Thread Group_Prod1 1-1,true,1624,1,1,2106,1,0,INFPU07042,246
1512552173423,2204,FileUpload D12_PE7611,200,Thread Group_Prod1 1-1,true,1624,1,1,2203,1,0,INFPU07042,246
1512552175665,2550,FileUpload D12_PE7611,200,Thread Group_Prod1 1-1,true,2042,1,1,2549,1,0,INFPU07042,247
1512552178249,2336,FileUpload D12_PE7611,200,Thread Group_Prod1 1-1,true,1799,1,1,2336,1,0,INFPU07042,245
1512552180620,2137,FileUpload D12_PE7611,200,Thread Group_Prod1 1-1,true,1754,1,1,2136,1,0,INFPU07042,246
1512552182768,2567,FileUpload D13_PE5691_1Record,200,Thread Group_Prod1 1-1,true,3264,1,1,2567,1,0,INFPU07042,245
1512552185371,2640,FileUpload D15_PE5691_1Record,200,Thread Group_Prod1 1-1,true,3264,1,1,2640,1,0,INFPU07042,246
1512552188012,2571,FileUpload D16_PE7071_1Record,200,Thread Group_Prod1 1-1,true,6396,1,1,2571,1,0,INFPU07042,437
1512552190618,2408,FileUpload D17_PE7071_1Record,200,Thread Group_Prod1 1-1,true,6394,1,1,2406,1,0,INFPU07042,245
1512552193084,2849,FileUpload D18_PE7071_1Record,200,Thread Group_Prod1 1-1,true,6995,1,1,2847,1,0,INFPU07042,246
1512552195976,2628,FileUpload D20_PE7071_1Record,200,Thread Group_Prod1 1-1,true,5215,1,1,2626,1,0,INFPU07042,248
1512552876849,529,NoFileUpload B17_PE7033_PE7314,500,Thread Group_Prod1 1-1,false,290,1,1,529,1,1,INFPU07042,3
1512552877378,30,NoFileUpload B18_PE7033_PE7314,200,Thread Group_Prod1 1-1,false,605,1,1,30,1,1,INFPU07042,2
1512552877408,18,NoFileUpload B17_PE7044_expression,404,Thread Group_Prod1 1-1,false,1245,1,1,18,1,1,INFPU07042,0
1512552877427,3,NoFileUpload B17_PE7044_range,404,Thread Group_Prod1 1-1,false,1245,1,1,3,1,1,INFPU07042,0
1512552877501,4,NoFileUpload B17_PE7044_rangeValidationRefTable,404,Thread Group_Prod1 1-1,false,1245,1,1,4,1,1,INFPU07042,0
1512552877532,4,NoFileUpload B17_PE7044_rangeValidationRefTable_dimensions,404,Thread Group_Prod1 1-1,false,1245,1,1,4,1,1,INFPU07042,0
1512552877576,5,NoFileUpload B17_PE7631,404,Thread Group_Prod1 1-1,false,1239,1,1,5,1,1,INFPU07042,0
1512552877595,3,NoFileUpload B17_PE7631_metaData,404,Thread Group_Prod1 1-1,false,1239,1,1,3,1,1,INFPU07042,0
1512552877611,158,FileUpload D10_PE5216,500,Thread Group_Prod1 1-1,false,438,1,1,158,1,1,INFPU07042,0
1512552877847,984,FileUpload D11_PE6030,200,Thread Group_Prod1 1-1,true,3242,1,1,984,1,0,INFPU07042,2
1512552878888,57,FileUpload D12_PE6027,500,Thread Group_Prod1 1-1,false,438,1,1,57,1,1,INFPU07042,0
1512552878979,260620,FileUpload D12_PE7611,Non HTTP response code: java.net.SocketException,Thread Group_Prod1 1-1,false,2675,1,1,0,1,1,INFPU07042,2
1512553144557,43,NoFileUpload B17_PE7033_PE7314,500,Thread Group_Prod1 1-1,false,290,1,1,43,1,1,INFPU07042,1
1512553144601,12,NoFileUpload B18_PE7033_PE7314,200,Thread Group_Prod1 1-1,false,605,1,1,12,1,1,INFPU07042,2
1512553144614,4,NoFileUpload B17_PE7044_expression,404,Thread Group_Prod1 1-1,false,1245,1,1,4,1,1,INFPU07042,0
1512553144619,4,NoFileUpload B17_PE7044_range,404,Thread Group_Prod1 1-1,false,1245,1,1,4,1,1,INFPU07042,0
1512553144684,3,NoFileUpload B17_PE7044_rangeValidationRefTable,404,Thread Group_Prod1 1-1,false,1245,1,1,3,1,1,INFPU07042,0
1512553144709,2,NoFileUpload B17_PE7044_rangeValidationRefTable_dimensions,404,Thread Group_Prod1 1-1,false,1245,1,1,2,1,1,INFPU07042,0
1512553144748,4,NoFileUpload B17_PE7631,404,Thread Group_Prod1 1-1,false,1239,1,1,4,1,1,INFPU07042,0
1512553144753,2,NoFileUpload B17_PE7631_metaData,404,Thread Group_Prod1 1-1,false,1239,1,1,2,1,1,INFPU07042,0
1512553144756,27,FileUpload D10_PE5216,500,Thread Group_Prod1 1-1,false,438,1,1,27,1,1,INFPU07042,0
1512553144822,47,FileUpload D11_PE6030,200,Thread Group_Prod1 1-1,true,3242,1,1,47,1,0,INFPU07042,2
1512553144927,50,FileUpload D12_PE6027,500,Thread Group_Prod1 1-1,false,438,1,1,50,1,1,INFPU07042,0
1512553145014,33998,FileUpload D12_PE7611,Non HTTP response code: java.net.SocketException,Thread Group_Prod1 1-1,false,2675,1,1,0,1,1,INFPU07042,2
1512553184841,27,NoFileUpload B17_PE7033_PE7314,500,Thread Group_Prod1 1-1,false,290,1,1,27,1,1,INFPU07042,1
1512553184868,16,NoFileUpload B18_PE7033_PE7314,200,Thread Group_Prod1 1-1,false,605,1,1,15,1,1,INFPU07042,2
1512553184884,6,NoFileUpload B17_PE7044_expression,404,Thread Group_Prod1 1-1,false,1245,1,1,5,1,1,INFPU07042,0
1512553184890,4,NoFileUpload B17_PE7044_range,404,Thread Group_Prod1 1-1,false,1245,1,1,4,1,1,INFPU07042,0
1512553184968,2,NoFileUpload B17_PE7044_rangeValidationRefTable,404,Thread Group_Prod1 1-1,false,1245,1,1,2,1,1,INFPU07042,0
1512553184998,3,NoFileUpload B17_PE7044_rangeValidationRefTable_dimensions,404,Thread Group_Prod1 1-1,false,1245,1,1,3,1,1,INFPU07042,0
1512553185040,9,NoFileUpload B17_PE7631,200,Thread Group_Prod1 1-1,true,1530,1,1,9,1,0,INFPU07042,0
1512553185049,17,NoFileUpload B17_PE7631_metaData,200,Thread Group_Prod1 1-1,true,825,1,1,17,1,0,INFPU07042,0
1512553185066,29,FileUpload D10_PE5216,500,Thread Group_Prod1 1-1,false,438,1,1,29,1,1,INFPU07042,0
1512553185138,59,FileUpload D11_PE6030,200,Thread Group_Prod1 1-1,true,3242,1,1,59,1,0,INFPU07042,4
1512553185232,43,FileUpload D12_PE6027,500,Thread Group_Prod1 1-1,false,438,1,1,42,1,1,INFPU07042,0
1512553185326,24943,FileUpload D12_PE7611,Non HTTP response code: java.net.SocketException,Thread Group_Prod1 1-1,false,2675,1,1,0,1,1,INFPU07042,2
1512553213873,71,NoFileUpload B17_PE7033_PE7314,500,Thread Group_Prod1 1-1,false,290,1,1,70,1,1,INFPU07042,2
1512553213945,37,NoFileUpload B18_PE7033_PE7314,200,Thread Group_Prod1 1-1,false,605,1,1,36,1,1,INFPU07042,5
1512553213983,9,NoFileUpload B17_PE7044_expression,404,Thread Group_Prod1 1-1,false,1245,1,1,9,1,1,INFPU07042,0
1512553213993,8,NoFileUpload B17_PE7044_range,404,Thread Group_Prod1 1-1,false,1245,1,1,8,1,1,INFPU07042,0
1512553214084,3,NoFileUpload B17_PE7044_rangeValidationRefTable,404,Thread Group_Prod1 1-1,false,1245,1,1,3,1,1,INFPU07042,0
1512553214114,3,NoFileUpload B17_PE7044_rangeValidationRefTable_dimensions,404,Thread Group_Prod1 1-1,false,1245,1,1,3,1,1,INFPU07042,0
1512553214157,8,NoFileUpload B17_PE7631,200,Thread Group_Prod1 1-1,true,1530,1,1,7,1,0,INFPU07042,0
1512553214176,7,NoFileUpload B17_PE7631_metaData,200,Thread Group_Prod1 1-1,true,825,1,1,7,1,0,INFPU07042,0
1512553214195,24,FileUpload D10_PE5216,500,Thread Group_Prod1 1-1,false,438,1,1,23,1,1,INFPU07042,0
1512553214266,39,FileUpload D11_PE6030,200,Thread Group_Prod1 1-1,true,3242,1,1,39,1,0,INFPU07042,2
1512553214345,55,FileUpload D12_PE6027,500,Thread Group_Prod1 1-1,false,438,1,1,54,1,1,INFPU07042,0
1512553214472,6789,FileUpload D12_PE7611,Non HTTP response code: java.net.SocketException,Thread Group_Prod1 1-1,false,2675,1,1,0,1,1,INFPU07042,2
1512553225016,44,NoFileUpload B17_PE7033_PE7314,500,Thread Group_Prod1 1-1,false,290,1,1,44,1,1,INFPU07042,2
1512553225061,25,NoFileUpload B18_PE7033_PE7314,200,Thread Group_Prod1 1-1,false,605,1,1,24,1,1,INFPU07042,2
1512553225087,7,NoFileUpload B17_PE7044_expression,404,Thread Group_Prod1 1-1,false,1245,1,1,7,1,1,INFPU07042,0
1512553225094,5,NoFileUpload B17_PE7044_range,404,Thread Group_Prod1 1-1,false,1245,1,1,5,1,1,INFPU07042,0
1512553225201,5,NoFileUpload B17_PE7044_rangeValidationRefTable,404,Thread Group_Prod1 1-1,false,1245,1,1,4,1,1,INFPU07042,0
1512553225232,4,NoFileUpload B17_PE7044_rangeValidationRefTable_dimensions,404,Thread Group_Prod1 1-1,false,1245,1,1,4,1,1,INFPU07042,0
1512553225279,11,NoFileUpload B17_PE7631,200,Thread Group_Prod1 1-1,true,1530,1,1,10,1,0,INFPU07042,0
1512553225302,9,NoFileUpload B17_PE7631_metaData,200,Thread Group_Prod1 1-1,true,825,1,1,9,1,0,INFPU07042,0
1512553225322,33,FileUpload D10_PE5216,500,Thread Group_Prod1 1-1,false,438,1,1,32,1,1,INFPU07042,0
1512553225399,49,FileUpload D11_PE6030,200,Thread Group_Prod1 1-1,true,3242,1,1,49,1,0,INFPU07042,2
1512553225503,48,FileUpload D12_PE6027,500,Thread Group_Prod1 1-1,false,438,1,1,47,1,1,INFPU07042,0
1512553225584,711519,FileUpload D12_PE7611,Non HTTP response code: java.net.SocketException,Thread Group_Prod1 1-1,false,2675,1,1,0,1,1,INFPU07042,2
1512554339872,451,NoFileUpload B17_PE7033_PE7314,200,Thread Group_Prod1 1-1,true,1569,1,1,451,1,0,INFPU07042,5
1512554340324,36,NoFileUpload B18_PE7033_PE7314,200,Thread Group_Prod1 1-1,true,624,1,1,36,1,0,INFPU07042,0
1512554340360,53,NoFileUpload B17_PE7044_expression,10000,Thread Group_Prod1 1-1,false,102,1,1,53,1,1,INFPU07042,0
1512554340414,12,NoFileUpload B17_PE7044_range,10000,Thread Group_Prod1 1-1,false,102,1,1,12,1,1,INFPU07042,0
1512554340489,10,NoFileUpload B17_PE7044_rangeValidationRefTable,10000,Thread Group_Prod1 1-1,false,102,1,1,10,1,1,INFPU07042,0
1512554340518,10,NoFileUpload B17_PE7044_rangeValidationRefTable_dimensions,10000,Thread Group_Prod1 1-1,false,102,1,1,10,1,1,INFPU07042,0
1512554340556,14,NoFileUpload B17_PE7631,200,Thread Group_Prod1 1-1,false,1136,1,1,14,1,1,INFPU07042,0
1512554340583,9,NoFileUpload B17_PE7631_metaData,200,Thread Group_Prod1 1-1,false,811,1,1,9,1,1,INFPU07042,0
1512554340604,15,NoFileUpload B17_PE7045,200,Thread Group_Prod1 1-1,true,1443,1,1,15,1,0,INFPU07042,0
1512554340619,13,FileUpload D10_PE5216,415,Thread Group_Prod1 1-1,false,148,1,1,13,1,1,INFPU07042,0
1512554340669,4,FileUpload D11_PE6030,415,Thread Group_Prod1 1-1,false,148,1,1,4,1,1,INFPU07042,0
1512554340703,22,FileUpload D12_PE6027,415,Thread Group_Prod1 1-1,false,148,1,1,22,1,1,INFPU07042,0
1512554340756,15,FileUpload D12_PE7611,415,Thread Group_Prod1 1-1,false,148,1,1,15,1,1,INFPU07042,0
1512554340781,15,FileUpload D12_PE7611,415,Thread Group_Prod1 1-1,false,148,1,1,15,1,1,INFPU07042,0
1512554340806,16,FileUpload D12_PE7611,415,Thread Group_Prod1 1-1,false,148,1,1,16,1,1,INFPU07042,0
1512554340833,12,FileUpload D12_PE7611,415,Thread Group_Prod1 1-1,false,148,1,1,12,1,1,INFPU07042,0
1512554340855,12,FileUpload D12_PE7611,415,Thread Group_Prod1 1-1,false,148,1,1,12,1,1,INFPU07042,0
1512554340877,11,FileUpload D12_PE7611,415,Thread Group_Prod1 1-1,false,148,1,1,11,1,1,INFPU07042,0
1512554340897,15,FileUpload D12_PE7611,415,Thread Group_Prod1 1-1,false,148,1,1,15,1,1,INFPU07042,0
1512554340922,10,FileUpload D12_PE7611,415,Thread Group_Prod1 1-1,false,148,1,1,10,1,1,INFPU07042,0
1512554340943,10,FileUpload D12_PE7611,415,Thread Group_Prod1 1-1,false,148,1,1,10,1,1,INFPU07042,0
1512554340964,11,FileUpload D12_PE7611,415,Thread Group_Prod1 1-1,false,148,1,1,11,1,1,INFPU07042,0
1512554340985,11,FileUpload D13_PE5691_1Record,415,Thread Group_Prod1 1-1,false,148,1,1,11,1,1,INFPU07042,0
1512554341007,12,FileUpload D15_PE5691_1Record,415,Thread Group_Prod1 1-1,false,148,1,1,12,1,1,INFPU07042,0
1512554341019,12,FileUpload D16_PE7071_1Record,415,Thread Group_Prod1 1-1,false,148,1,1,12,1,1,INFPU07042,0
1512554341043,15,FileUpload D17_PE7071_1Record,415,Thread Group_Prod1 1-1,false,148,1,1,15,1,1,INFPU07042,0
1512554341076,13,FileUpload D18_PE7071_1Record,415,Thread Group_Prod1 1-1,false,148,1,1,13,1,1,INFPU07042,0
1512554341099,11,FileUpload D20_PE7071_1Record,415,Thread Group_Prod1 1-1,false,148,1,1,11,1,1,INFPU07042,0
1512557100553,10004,NoFileUpload B17_PE7033_PE7314,Non HTTP response code: java.net.SocketTimeoutException,Thread Group_Prod1 1-1,false,2683,1,1,0,1,1,INFPU07042,4
1512557110559,104,NoFileUpload B18_PE7033_PE7314,200,Thread Group_Prod1 1-1,false,605,1,1,104,1,1,INFPU07042,3
1512557110664,8,NoFileUpload B17_PE7044_expression,404,Thread Group_Prod1 1-1,false,1245,1,1,8,1,1,INFPU07042,0
1512557110673,5,NoFileUpload B17_PE7044_range,404,Thread Group_Prod1 1-1,false,1245,1,1,5,1,1,INFPU07042,0
1512557110762,6,NoFileUpload B17_PE7044_rangeValidationRefTable,404,Thread Group_Prod1 1-1,false,1245,1,1,6,1,1,INFPU07042,0
1512557110798,6,NoFileUpload B17_PE7044_rangeValidationRefTable_dimensions,404,Thread Group_Prod1 1-1,false,1245,1,1,6,1,1,INFPU07042,0
1512557110840,9999,NoFileUpload B17_PE7631,Non HTTP response code: java.net.SocketTimeoutException,Thread Group_Prod1 1-1,false,2683,1,1,0,1,1,INFPU07042,0
1512557120880,22,NoFileUpload B17_PE7631_metaData,200,Thread Group_Prod1 1-1,true,825,1,1,22,1,0,INFPU07042,3
1512557120932,10001,NoFileUpload B17_PE7631_Autocorrect,Non HTTP response code: java.net.SocketTimeoutException,Thread Group_Prod1 1-1,false,2683,1,1,0,1,1,INFPU07042,0
1512557130974,68,NoFileUpload B17_PE7045,500,Thread Group_Prod1 1-1,false,338,1,1,66,1,1,INFPU07042,2
1512557131043,487,FileUpload D10_PE5216,500,Thread Group_Prod1 1-1,false,438,1,1,486,1,1,INFPU07042,5
1512557131625,905,FileUpload D11_PE6030,200,Thread Group_Prod1 1-1,true,3242,1,1,905,1,0,INFPU07042,2
1512557132602,114,FileUpload D12_PE6027,500,Thread Group_Prod1 1-1,false,438,1,1,113,1,1,INFPU07042,0
1512557132814,137496,FileUpload D12_PE7611,Non HTTP response code: java.net.SocketException,Thread Group_Prod1 1-1,false,2675,1,1,0,1,1,INFPU07042,5
1512557282200,45,NoFileUpload B17_PE7033_PE7314,500,Thread Group_Prod1 1-1,false,290,1,1,45,1,1,INFPU07042,1
1512557282246,19,NoFileUpload B18_PE7033_PE7314,200,Thread Group_Prod1 1-1,false,605,1,1,18,1,1,INFPU07042,2
1512557282266,5,NoFileUpload B17_PE7044_expression,404,Thread Group_Prod1 1-1,false,1245,1,1,5,1,1,INFPU07042,0
1512557282271,5,NoFileUpload B17_PE7044_range,404,Thread Group_Prod1 1-1,false,1245,1,1,4,1,1,INFPU07042,0
1512557282334,5,NoFileUpload B17_PE7044_rangeValidationRefTable,404,Thread Group_Prod1 1-1,false,1245,1,1,5,1,1,INFPU07042,0
1512557282360,4,NoFileUpload B17_PE7044_rangeValidationRefTable_dimensions,404,Thread Group_Prod1 1-1,false,1245,1,1,4,1,1,INFPU07042,0
1512557282403,27,NoFileUpload B17_PE7631,200,Thread Group_Prod1 1-1,true,1530,1,1,26,1,0,INFPU07042,0
1512557282463,21,NoFileUpload B17_PE7631_metaData,200,Thread Group_Prod1 1-1,true,825,1,1,20,1,0,INFPU07042,0
1512557282501,19,NoFileUpload B17_PE7631_Autocorrect,200,Thread Group_Prod1 1-1,true,1924,1,1,19,1,0,INFPU07042,0
1512557282537,6,NoFileUpload B17_PE7045,500,Thread Group_Prod1 1-1,false,338,1,1,6,1,1,INFPU07042,0
1512557282543,29,FileUpload D10_PE5216,500,Thread Group_Prod1 1-1,false,438,1,1,29,1,1,INFPU07042,3
1512557282623,95,FileUpload D11_PE6030,200,Thread Group_Prod1 1-1,true,3242,1,1,95,1,0,INFPU07042,2
1512557282794,36,FileUpload D12_PE6027,500,Thread Group_Prod1 1-1,false,438,1,1,35,1,1,INFPU07042,0
1512557282858,205173,FileUpload D12_PE7611,Non HTTP response code: java.net.SocketException,Thread Group_Prod1 1-1,false,2675,1,1,0,1,1,INFPU07042,2
1512557834327,1138,NoFileUpload B17_PE7033_PE7314,Non HTTP response code: java.net.ConnectException,Thread Group_Prod1 1-1,false,2131,1,1,0,1,1,INFPU07042,1137
1512557835570,1042,NoFileUpload B18_PE7033_PE7314,Non HTTP response code: java.net.ConnectException,Thread Group_Prod1 1-1,false,2131,1,1,0,1,1,INFPU07042,1042
1512557836615,1020,NoFileUpload B17_PE7044_expression,Non HTTP response code: java.net.ConnectException,Thread Group_Prod1 1-1,false,2131,1,1,0,1,1,INFPU07042,1020
1512557837644,1039,NoFileUpload B17_PE7044_range,Non HTTP response code: java.net.ConnectException,Thread Group_Prod1 1-1,false,2131,1,1,0,1,1,INFPU07042,1039
1512557839690,1019,NoFileUpload B17_PE7044_rangeValidationRefTable,Non HTTP response code: java.net.ConnectException,Thread Group_Prod1 1-1,false,2131,1,1,0,1,1,INFPU07042,1019
1512557840776,1028,NoFileUpload B17_PE7044_rangeValidationRefTable_dimensions,Non HTTP response code: java.net.ConnectException,Thread Group_Prod1 1-1,false,2131,1,1,0,1,1,INFPU07042,1028
1512557841902,1012,NoFileUpload B17_PE7631,Non HTTP response code: java.net.ConnectException,Thread Group_Prod1 1-1,false,2131,1,1,0,1,1,INFPU07042,1012
1512557842988,1036,NoFileUpload B17_PE7631_metaData,Non HTTP response code: java.net.ConnectException,Thread Group_Prod1 1-1,false,2131,1,1,0,1,1,INFPU07042,1036
1512557844079,1023,NoFileUpload B17_PE7631_Autocorrect,Non HTTP response code: java.net.ConnectException,Thread Group_Prod1 1-1,false,2131,1,1,0,1,1,INFPU07042,1023
1512557845153,1017,NoFileUpload B17_PE7045,Non HTTP response code: java.net.ConnectException,Thread Group_Prod1 1-1,false,2131,1,1,0,1,1,INFPU07042,1017
1512557846175,1187,FileUpload D10_PE5216,Non HTTP response code: java.net.ConnectException,Thread Group_Prod1 1-1,false,2137,1,1,0,1,1,INFPU07042,1187
1512557847469,1018,FileUpload D11_PE6030,Non HTTP response code: java.net.ConnectException,Thread Group_Prod1 1-1,false,2137,1,1,0,1,1,INFPU07042,1018
1512557848589,1023,FileUpload D12_PE6027,Non HTTP response code: java.net.ConnectException,Thread Group_Prod1 1-1,false,2137,1,1,0,1,1,INFPU07042,1023
1512557849743,1010,FileUpload D12_PE7611,Non HTTP response code: java.net.ConnectException,Thread Group_Prod1 1-1,false,2137,1,1,0,1,1,INFPU07042,1010
1512557850799,1012,FileUpload D12_PE7611,Non HTTP response code: java.net.ConnectException,Thread Group_Prod1 1-1,false,2137,1,1,0,1,1,INFPU07042,1012
1512557851854,1022,FileUpload D12_PE7611,Non HTTP response code: java.net.ConnectException,Thread Group_Prod1 1-1,false,2137,1,1,0,1,1,INFPU07042,1022
1512557852923,1033,FileUpload D12_PE7611,Non HTTP response code: java.net.ConnectException,Thread Group_Prod1 1-1,false,2137,1,1,0,1,1,INFPU07042,1033
1512557854018,1016,FileUpload D12_PE7611,Non HTTP response code: java.net.ConnectException,Thread Group_Prod1 1-1,false,2137,1,1,0,1,1,INFPU07042,1016
1512557855084,1043,FileUpload D12_PE7611,Non HTTP response code: java.net.ConnectException,Thread Group_Prod1 1-1,false,2137,1,1,0,1,1,INFPU07042,1043
1512557856167,1039,FileUpload D12_PE7611,Non HTTP response code: java.net.ConnectException,Thread Group_Prod1 1-1,false,2137,1,1,0,1,1,INFPU07042,1039
1512557857254,1030,FileUpload D12_PE7611,Non HTTP response code: java.net.ConnectException,Thread Group_Prod1 1-1,false,2137,1,1,0,1,1,INFPU07042,1030
1512557858339,1057,FileUpload D12_PE7611,Non HTTP response code: java.net.ConnectException,Thread Group_Prod1 1-1,false,2137,1,1,0,1,1,INFPU07042,1057
1512557859439,1030,FileUpload D12_PE7611,Non HTTP response code: java.net.ConnectException,Thread Group_Prod1 1-1,false,2137,1,1,0,1,1,INFPU07042,1030
1512557860524,1027,FileUpload D13_PE5691_1Record,Non HTTP response code: java.net.ConnectException,Thread Group_Prod1 1-1,false,2137,1,1,0,1,1,INFPU07042,1027
1512557861590,1039,FileUpload D15_PE5691_1Record,Non HTTP response code: java.net.ConnectException,Thread Group_Prod1 1-1,false,2137,1,1,0,1,1,INFPU07042,1039
1512557862638,236,FileUpload D16_PE7071_1Record,Non HTTP response code: java.net.SocketException,Thread Group_Prod1 1-1,false,2160,1,1,0,1,1,INFPU07042,236
1512557958381,1037,NoFileUpload B17_PE7033_PE7314,Non HTTP response code: java.net.ConnectException,Thread Group_Prod1 1-1,false,2131,1,1,0,1,1,INFPU07042,1037
1512557959421,1029,NoFileUpload B18_PE7033_PE7314,Non HTTP response code: java.net.ConnectException,Thread Group_Prod1 1-1,false,2131,1,1,0,1,1,INFPU07042,1029
1512557960453,1014,NoFileUpload B17_PE7044_expression,Non HTTP response code: java.net.ConnectException,Thread Group_Prod1 1-1,false,2131,1,1,0,1,1,INFPU07042,1014
1512557961470,1029,NoFileUpload B17_PE7044_range,Non HTTP response code: java.net.ConnectException,Thread Group_Prod1 1-1,false,2131,1,1,0,1,1,INFPU07042,1029
1512557962606,1002,NoFileUpload B17_PE7044_rangeValidationRefTable,Non HTTP response code: java.net.ConnectException,Thread Group_Prod1 1-1,false,2131,1,1,0,1,1,INFPU07042,1002
1512557963693,1013,NoFileUpload B17_PE7044_rangeValidationRefTable_dimensions,Non HTTP response code: java.net.ConnectException,Thread Group_Prod1 1-1,false,2131,1,1,0,1,1,INFPU07042,1013
1512557964816,1013,NoFileUpload B17_PE7631,Non HTTP response code: java.net.ConnectException,Thread Group_Prod1 1-1,false,2131,1,1,0,1,1,INFPU07042,1013
1512557965886,1000,NoFileUpload B17_PE7631_metaData,Non HTTP response code: java.net.ConnectException,Thread Group_Prod1 1-1,false,2131,1,1,0,1,1,INFPU07042,1000
1512557966914,1036,NoFileUpload B17_PE7631_Autocorrect,Non HTTP response code: java.net.ConnectException,Thread Group_Prod1 1-1,false,2131,1,1,0,1,1,INFPU07042,1036
1512557968001,1013,NoFileUpload B17_PE7045,Non HTTP response code: java.net.ConnectException,Thread Group_Prod1 1-1,false,2131,1,1,0,1,1,INFPU07042,1013
1512557969016,1031,FileUpload D10_PE5216,Non HTTP response code: java.net.ConnectException,Thread Group_Prod1 1-1,false,2137,1,1,0,1,1,INFPU07042,1030
1512557970140,1000,FileUpload D11_PE6030,Non HTTP response code: java.net.ConnectException,Thread Group_Prod1 1-1,false,2137,1,1,0,1,1,INFPU07042,1000
1512557971237,1013,FileUpload D12_PE6027,Non HTTP response code: java.net.ConnectException,Thread Group_Prod1 1-1,false,2137,1,1,0,1,1,INFPU07042,1013
1512557972341,1019,FileUpload D12_PE7611,Non HTTP response code: java.net.ConnectException,Thread Group_Prod1 1-1,false,2137,1,1,0,1,1,INFPU07042,1019
1512557973391,1031,FileUpload D12_PE7611,Non HTTP response code: java.net.ConnectException,Thread Group_Prod1 1-1,false,2137,1,1,0,1,1,INFPU07042,1031
1512557974462,1034,FileUpload D12_PE7611,Non HTTP response code: java.net.ConnectException,Thread Group_Prod1 1-1,false,2137,1,1,0,1,1,INFPU07042,1034
1512557975549,1039,FileUpload D12_PE7611,Non HTTP response code: java.net.ConnectException,Thread Group_Prod1 1-1,false,2137,1,1,0,1,1,INFPU07042,1039
1512557976637,1033,FileUpload D12_PE7611,Non HTTP response code: java.net.ConnectException,Thread Group_Prod1 1-1,false,2137,1,1,0,1,1,INFPU07042,1033
1512557977719,1000,FileUpload D12_PE7611,Non HTTP response code: java.net.ConnectException,Thread Group_Prod1 1-1,false,2137,1,1,0,1,1,INFPU07042,1000
1512557978769,1030,FileUpload D12_PE7611,Non HTTP response code: java.net.ConnectException,Thread Group_Prod1 1-1,false,2137,1,1,0,1,1,INFPU07042,1030
1512557979839,1039,FileUpload D12_PE7611,Non HTTP response code: java.net.ConnectException,Thread Group_Prod1 1-1,false,2137,1,1,0,1,1,INFPU07042,1039
1512557980901,1030,FileUpload D12_PE7611,Non HTTP response code: java.net.ConnectException,Thread Group_Prod1 1-1,false,2137,1,1,0,1,1,INFPU07042,1030
1512557981979,1015,FileUpload D12_PE7611,Non HTTP response code: java.net.ConnectException,Thread Group_Prod1 1-1,false,2137,1,1,0,1,1,INFPU07042,1015
1512557983035,1009,FileUpload D13_PE5691_1Record,Non HTTP response code: java.net.ConnectException,Thread Group_Prod1 1-1,false,2137,1,1,0,1,1,INFPU07042,1009
1512557984086,1037,FileUpload D15_PE5691_1Record,Non HTTP response code: java.net.ConnectException,Thread Group_Prod1 1-1,false,2137,1,1,0,1,1,INFPU07042,1037
1512557985126,1032,FileUpload D16_PE7071_1Record,Non HTTP response code: java.net.ConnectException,Thread Group_Prod1 1-1,false,2137,1,1,0,1,1,INFPU07042,1032
1512557986209,1028,FileUpload D17_PE7071_1Record,Non HTTP response code: java.net.ConnectException,Thread Group_Prod1 1-1,false,2137,1,1,0,1,1,INFPU07042,1028
1512557987291,1012,FileUpload D18_PE7071_1Record,Non HTTP response code: java.net.ConnectException,Thread Group_Prod1 1-1,false,2137,1,1,0,1,1,INFPU07042,1012
1512557988358,1033,FileUpload D20_PE7071_1Record,Non HTTP response code: java.net.ConnectException,Thread Group_Prod1 1-1,false,2137,1,1,0,1,1,INFPU07042,1033
1512557989450,1000,NoFileUpload B21_7045RawJson_NonNumerciData,Non HTTP response code: java.net.ConnectException,Thread Group_Prod1 1-1,false,2131,1,1,0,1,1,INFPU07042,1000
1512557990454,1027,NoFileUpload B21_7045RawJson_SkipBlankCols,Non HTTP response code: java.net.ConnectException,Thread Group_Prod1 1-1,false,2131,1,1,0,1,1,INFPU07042,1027
1512557991482,1020,NoFileUpload B21_7045RawJson_SkipNonNumericCols,Non HTTP response code: java.net.ConnectException,Thread Group_Prod1 1-1,false,2131,1,1,0,1,1,INFPU07042,1020
1512557992508,1026,NoFileUpload B21_7045RawJson_WithDimesion,Non HTTP response code: java.net.ConnectException,Thread Group_Prod1 1-1,false,2131,1,1,0,1,1,INFPU07042,1026
1512557993536,1005,NoFileUpload B21_7045RawJson_SingleNonBlankValue,Non HTTP response code: java.net.ConnectException,Thread Group_Prod1 1-1,false,2131,1,1,0,1,1,INFPU07042,1005
1512557994543,1038,NoFileUpload B21_7045RawJson_WithOtherValidation,Non HTTP response code: java.net.ConnectException,Thread Group_Prod1 1-1,false,2131,1,1,0,1,1,INFPU07042,1038
1512558462758,922,NoFileUpload B17_PE7033_PE7314,200,Thread Group_Prod1 1-1,true,1569,1,1,836,1,0,INFPU07042,111
1512558463682,57,NoFileUpload B18_PE7033_PE7314,200,Thread Group_Prod1 1-1,true,624,1,1,57,1,0,INFPU07042,0
1512558463741,113,NoFileUpload B17_PE7044_expression,10000,Thread Group_Prod1 1-1,false,102,1,1,113,1,1,INFPU07042,0
1512558463856,14,NoFileUpload B17_PE7044_range,10000,Thread Group_Prod1 1-1,false,102,1,1,14,1,1,INFPU07042,0
1512558463941,12,NoFileUpload B17_PE7044_rangeValidationRefTable,10000,Thread Group_Prod1 1-1,false,102,1,1,12,1,1,INFPU07042,0
1512558463977,10,NoFileUpload B17_PE7044_rangeValidationRefTable_dimensions,10000,Thread Group_Prod1 1-1,false,102,1,1,10,1,1,INFPU07042,0
1512558464022,12,NoFileUpload B17_PE7631,200,Thread Group_Prod1 1-1,false,1136,1,1,12,1,1,INFPU07042,0
1512558464048,15,NoFileUpload B17_PE7631_metaData,200,Thread Group_Prod1 1-1,false,811,1,1,15,1,1,INFPU07042,0
1512558464083,13,NoFileUpload B17_PE7631_Autocorrect,200,Thread Group_Prod1 1-1,false,1176,1,1,13,1,1,INFPU07042,0
1512558464122,11,NoFileUpload B17_PE7045,200,Thread Group_Prod1 1-1,true,1074,1,1,11,1,0,INFPU07042,0
1512558464134,12,FileUpload D10_PE5216,415,Thread Group_Prod1 1-1,false,148,1,1,12,1,1,INFPU07042,0
1512558464194,6,FileUpload D11_PE6030,415,Thread Group_Prod1 1-1,false,148,1,1,6,1,1,INFPU07042,0
1512558464233,7,FileUpload D12_PE6027,415,Thread Group_Prod1 1-1,false,148,1,1,7,1,1,INFPU07042,0
1512558464271,12,FileUpload D12_PE7611,415,Thread Group_Prod1 1-1,false,148,1,1,12,1,1,INFPU07042,0
1512558464295,11,FileUpload D12_PE7611,415,Thread Group_Prod1 1-1,false,148,1,1,11,1,1,INFPU07042,0
1512558464317,11,FileUpload D12_PE7611,415,Thread Group_Prod1 1-1,false,148,1,1,11,1,1,INFPU07042,0
1512558464341,11,FileUpload D12_PE7611,415,Thread Group_Prod1 1-1,false,148,1,1,11,1,1,INFPU07042,0
1512558464361,12,FileUpload D12_PE7611,415,Thread Group_Prod1 1-1,false,148,1,1,12,1,1,INFPU07042,0
1512558464383,12,FileUpload D12_PE7611,415,Thread Group_Prod1 1-1,false,148,1,1,12,1,1,INFPU07042,0
1512558464408,10,FileUpload D12_PE7611,415,Thread Group_Prod1 1-1,false,148,1,1,10,1,1,INFPU07042,0
1512558464430,13,FileUpload D12_PE7611,415,Thread Group_Prod1 1-1,false,148,1,1,13,1,1,INFPU07042,0
1512558464452,11,FileUpload D12_PE7611,415,Thread Group_Prod1 1-1,false,148,1,1,11,1,1,INFPU07042,0
1512558464473,13,FileUpload D12_PE7611,415,Thread Group_Prod1 1-1,false,148,1,1,13,1,1,INFPU07042,0
1512558464495,12,FileUpload D13_PE5691_1Record,415,Thread Group_Prod1 1-1,false,148,1,1,12,1,1,INFPU07042,0
1512558464517,14,FileUpload D15_PE5691_1Record,415,Thread Group_Prod1 1-1,false,148,1,1,14,1,1,INFPU07042,0
1512558464531,13,FileUpload D16_PE7071_1Record,415,Thread Group_Prod1 1-1,false,148,1,1,13,1,1,INFPU07042,0
1512558464554,11,FileUpload D17_PE7071_1Record,415,Thread Group_Prod1 1-1,false,148,1,1,11,1,1,INFPU07042,0
1512558464582,11,FileUpload D18_PE7071_1Record,415,Thread Group_Prod1 1-1,false,148,1,1,11,1,1,INFPU07042,0
1512558464603,12,FileUpload D20_PE7071_1Record,415,Thread Group_Prod1 1-1,false,148,1,1,12,1,1,INFPU07042,0
1512558464623,3,NoFileUpload B21_7045RawJson_NonNumerciData,415,Thread Group_Prod1 1-1,false,148,1,1,3,1,1,INFPU07042,0
1512558464626,4,NoFileUpload B21_7045RawJson_SkipBlankCols,415,Thread Group_Prod1 1-1,false,148,1,1,4,1,1,INFPU07042,0
1512558464630,3,NoFileUpload B21_7045RawJson_SkipNonNumericCols,415,Thread Group_Prod1 1-1,false,148,1,1,3,1,1,INFPU07042,0
1512558464634,6,NoFileUpload B21_7045RawJson_WithDimesion,415,Thread Group_Prod1 1-1,false,148,1,1,6,1,1,INFPU07042,0
1512558464640,3,NoFileUpload B21_7045RawJson_SingleNonBlankValue,415,Thread Group_Prod1 1-1,false,148,1,1,3,1,1,INFPU07042,0
1512558464644,3,NoFileUpload B21_7045RawJson_WithOtherValidation,415,Thread Group_Prod1 1-1,false,148,1,1,3,1,1,INFPU07042,0
1512558514216,57,NoFileUpload B17_PE7033_PE7314,200,Thread Group_Prod1 1-1,true,1569,1,1,57,1,0,INFPU07042,2
1512558514274,51,NoFileUpload B18_PE7033_PE7314,200,Thread Group_Prod1 1-1,true,624,1,1,50,1,0,INFPU07042,0
1512558514326,17,NoFileUpload B17_PE7044_expression,10000,Thread Group_Prod1 1-1,false,102,1,1,17,1,1,INFPU07042,0
1512558514344,13,NoFileUpload B17_PE7044_range,10000,Thread Group_Prod1 1-1,false,102,1,1,13,1,1,INFPU07042,0
1512558514428,7,NoFileUpload B17_PE7044_rangeValidationRefTable,10000,Thread Group_Prod1 1-1,false,102,1,1,7,1,1,INFPU07042,0
1512558514457,8,NoFileUpload B17_PE7044_rangeValidationRefTable_dimensions,10000,Thread Group_Prod1 1-1,false,102,1,1,8,1,1,INFPU07042,0
1512558514496,13,NoFileUpload B17_PE7631,200,Thread Group_Prod1 1-1,false,1136,1,1,13,1,1,INFPU07042,0
1512558514522,19,NoFileUpload B17_PE7631_metaData,200,Thread Group_Prod1 1-1,false,811,1,1,18,1,1,INFPU07042,0
1512558514553,15,NoFileUpload B17_PE7631_Autocorrect,200,Thread Group_Prod1 1-1,false,1176,1,1,15,1,1,INFPU07042,0
1512558514582,13,NoFileUpload B17_PE7045,200,Thread Group_Prod1 1-1,true,1074,1,1,12,1,0,INFPU07042,0
1512558514596,5,FileUpload D10_PE5216,415,Thread Group_Prod1 1-1,false,148,1,1,5,1,1,INFPU07042,0
1512558514648,5,FileUpload D11_PE6030,415,Thread Group_Prod1 1-1,false,148,1,1,5,1,1,INFPU07042,0
1512558514687,5,FileUpload D12_PE6027,415,Thread Group_Prod1 1-1,false,148,1,1,5,1,1,INFPU07042,0
1512558514721,10,FileUpload D12_PE7611,415,Thread Group_Prod1 1-1,false,148,1,1,10,1,1,INFPU07042,0
1512558514740,10,FileUpload D12_PE7611,415,Thread Group_Prod1 1-1,false,148,1,1,10,1,1,INFPU07042,0
1512558514759,10,FileUpload D12_PE7611,415,Thread Group_Prod1 1-1,false,148,1,1,10,1,1,INFPU07042,0
1512558514779,9,FileUpload D12_PE7611,415,Thread Group_Prod1 1-1,false,148,1,1,9,1,1,INFPU07042,0
1512558514799,11,FileUpload D12_PE7611,415,Thread Group_Prod1 1-1,false,148,1,1,11,1,1,INFPU07042,0
1512558514819,16,FileUpload D12_PE7611,415,Thread Group_Prod1 1-1,false,148,1,1,16,1,1,INFPU07042,0
1512558514847,12,FileUpload D12_PE7611,415,Thread Group_Prod1 1-1,false,148,1,1,12,1,1,INFPU07042,0
1512558514870,12,FileUpload D12_PE7611,415,Thread Group_Prod1 1-1,false,148,1,1,12,1,1,INFPU07042,0
1512558514893,12,FileUpload D12_PE7611,415,Thread Group_Prod1 1-1,false,148,1,1,12,1,1,INFPU07042,0
1512558514914,12,FileUpload D12_PE7611,415,Thread Group_Prod1 1-1,false,148,1,1,12,1,1,INFPU07042,0
1512558514935,12,FileUpload D13_PE5691_1Record,415,Thread Group_Prod1 1-1,false,148,1,1,12,1,1,INFPU07042,0
1512558514956,15,FileUpload D15_PE5691_1Record,415,Thread Group_Prod1 1-1,false,148,1,1,15,1,1,INFPU07042,0
1512558514972,12,FileUpload D16_PE7071_1Record,415,Thread Group_Prod1 1-1,false,148,1,1,12,1,1,INFPU07042,0
1512558514999,12,FileUpload D17_PE7071_1Record,415,Thread Group_Prod1 1-1,false,148,1,1,12,1,1,INFPU07042,0
1512558515033,13,FileUpload D18_PE7071_1Record,415,Thread Group_Prod1 1-1,false,148,1,1,13,1,1,INFPU07042,0
1512558515057,14,FileUpload D20_PE7071_1Record,415,Thread Group_Prod1 1-1,false,148,1,1,14,1,1,INFPU07042,0
1512558515082,4,NoFileUpload B21_7045RawJson_NonNumerciData,415,Thread Group_Prod1 1-1,false,148,1,1,4,1,1,INFPU07042,0
1512558515086,4,NoFileUpload B21_7045RawJson_SkipBlankCols,415,Thread Group_Prod1 1-1,false,148,1,1,4,1,1,INFPU07042,0
1512558515090,3,NoFileUpload B21_7045RawJson_SkipNonNumericCols,415,Thread Group_Prod1 1-1,false,148,1,1,3,1,1,INFPU07042,0
1512558515094,4,NoFileUpload B21_7045RawJson_WithDimesion,415,Thread Group_Prod1 1-1,false,148,1,1,4,1,1,INFPU07042,0
1512558515098,3,NoFileUpload B21_7045RawJson_SingleNonBlankValue,415,Thread Group_Prod1 1-1,false,148,1,1,3,1,1,INFPU07042,0
1512558515101,4,NoFileUpload B21_7045RawJson_WithOtherValidation,415,Thread Group_Prod1 1-1,false,148,1,1,4,1,1,INFPU07042,0
1512558615498,60,NoFileUpload B17_PE7033_PE7314,200,Thread Group_Prod1 1-1,true,1569,1,1,60,1,0,INFPU07042,5
1512558615559,11,NoFileUpload B18_PE7033_PE7314,200,Thread Group_Prod1 1-1,true,624,1,1,10,1,0,INFPU07042,0
1512558615570,6,NoFileUpload B17_PE7044_expression,10000,Thread Group_Prod1 1-1,false,102,1,1,6,1,1,INFPU07042,0
1512558615576,6,NoFileUpload B17_PE7044_range,10000,Thread Group_Prod1 1-1,false,102,1,1,6,1,1,INFPU07042,0
1512558615625,6,NoFileUpload B17_PE7044_rangeValidationRefTable,10000,Thread Group_Prod1 1-1,false,102,1,1,6,1,1,INFPU07042,0
1512558615653,5,NoFileUpload B17_PE7044_rangeValidationRefTable_dimensions,10000,Thread Group_Prod1 1-1,false,102,1,1,5,1,1,INFPU07042,0
1512558615692,8,NoFileUpload B17_PE7631,200,Thread Group_Prod1 1-1,false,1136,1,1,8,1,1,INFPU07042,0
1512558615711,9,NoFileUpload B17_PE7631_metaData,200,Thread Group_Prod1 1-1,false,811,1,1,8,1,1,INFPU07042,0
1512558615730,11,NoFileUpload B17_PE7631_Autocorrect,200,Thread Group_Prod1 1-1,false,1176,1,1,10,1,1,INFPU07042,0
1512558615751,5,FileUpload D10_PE5216,415,Thread Group_Prod1 1-1,false,148,1,1,5,1,1,INFPU07042,0
1512558615799,6,FileUpload D11_PE6030,415,Thread Group_Prod1 1-1,false,148,1,1,6,1,1,INFPU07042,0
1512558615841,6,FileUpload D12_PE6027,415,Thread Group_Prod1 1-1,false,148,1,1,6,1,1,INFPU07042,0
1512558615889,16,FileUpload D12_PE7611,415,Thread Group_Prod1 1-1,false,148,1,1,16,1,1,INFPU07042,0
1512558615916,13,FileUpload D12_PE7611,415,Thread Group_Prod1 1-1,false,148,1,1,13,1,1,INFPU07042,0
1512558615942,14,FileUpload D12_PE7611,415,Thread Group_Prod1 1-1,false,148,1,1,14,1,1,INFPU07042,0
1512558615969,12,FileUpload D12_PE7611,415,Thread Group_Prod1 1-1,false,148,1,1,12,1,1,INFPU07042,0
1512558615994,13,FileUpload D12_PE7611,415,Thread Group_Prod1 1-1,false,148,1,1,13,1,1,INFPU07042,0
1512558616023,11,FileUpload D12_PE7611,415,Thread Group_Prod1 1-1,false,148,1,1,11,1,1,INFPU07042,0
1512558616045,11,FileUpload D12_PE7611,415,Thread Group_Prod1 1-1,false,148,1,1,11,1,1,INFPU07042,0
1512558616069,12,FileUpload D12_PE7611,415,Thread Group_Prod1 1-1,false,148,1,1,12,1,1,INFPU07042,0
1512558616094,10,FileUpload D12_PE7611,415,Thread Group_Prod1 1-1,false,148,1,1,10,1,1,INFPU07042,0
1512558616113,59,FileUpload D12_PE7611,415,Thread Group_Prod1 1-1,false,148,1,1,59,1,1,INFPU07042,0
1512558616185,17,FileUpload D13_PE5691_1Record,415,Thread Group_Prod1 1-1,false,148,1,1,17,1,1,INFPU07042,0
1512558616214,18,FileUpload D15_PE5691_1Record,415,Thread Group_Prod1 1-1,false,148,1,1,18,1,1,INFPU07042,0
1512558616233,16,FileUpload D16_PE7071_1Record,415,Thread Group_Prod1 1-1,false,148,1,1,16,1,1,INFPU07042,0
1512558616266,15,FileUpload D17_PE7071_1Record,415,Thread Group_Prod1 1-1,false,148,1,1,15,1,1,INFPU07042,0
1512558616315,18,FileUpload D18_PE7071_1Record,415,Thread Group_Prod1 1-1,false,148,1,1,18,1,1,INFPU07042,0
1512558616346,15,FileUpload D20_PE7071_1Record,415,Thread Group_Prod1 1-1,false,148,1,1,15,1,1,INFPU07042,0
1512558616372,12,NoFileUpload B17_PE7045,200,Thread Group_Prod1 1-1,true,1074,1,1,11,1,0,INFPU07042,0
1512558616384,10,NoFileUpload B21_7045RawJson_NonNumerciData,200,Thread Group_Prod1 1-1,false,1074,1,1,9,1,1,INFPU07042,0
1512558616406,4,NoFileUpload B21_7045RawJson_SkipBlankCols,415,Thread Group_Prod1 1-1,false,148,1,1,4,1,1,INFPU07042,0
1512558616410,2,NoFileUpload B21_7045RawJson_SkipNonNumericCols,415,Thread Group_Prod1 1-1,false,148,1,1,2,1,1,INFPU07042,0
1512558616413,3,NoFileUpload B21_7045RawJson_WithDimesion,415,Thread Group_Prod1 1-1,false,148,1,1,3,1,1,INFPU07042,0
1512558616425,3,NoFileUpload B21_7045RawJson_SingleNonBlankValue,415,Thread Group_Prod1 1-1,false,148,1,1,3,1,1,INFPU07042,0
1512558616428,3,NoFileUpload B21_7045RawJson_WithOtherValidation,415,Thread Group_Prod1 1-1,false,148,1,1,3,1,1,INFPU07042,0
1512558627460,65,NoFileUpload B17_PE7033_PE7314,200,Thread Group_Prod1 1-1,true,1569,1,1,64,1,0,INFPU07042,2
1512558627527,15,NoFileUpload B18_PE7033_PE7314,200,Thread Group_Prod1 1-1,true,624,1,1,13,1,0,INFPU07042,0
1512558627543,6,NoFileUpload B17_PE7044_expression,10000,Thread Group_Prod1 1-1,false,102,1,1,6,1,1,INFPU07042,0
1512558627550,7,NoFileUpload B17_PE7044_range,10000,Thread Group_Prod1 1-1,false,102,1,1,7,1,1,INFPU07042,0
1512558627618,6,NoFileUpload B17_PE7044_rangeValidationRefTable,10000,Thread Group_Prod1 1-1,false,102,1,1,6,1,1,INFPU07042,0
1512558627645,6,NoFileUpload B17_PE7044_rangeValidationRefTable_dimensions,10000,Thread Group_Prod1 1-1,false,102,1,1,6,1,1,INFPU07042,0
1512558627682,11,NoFileUpload B17_PE7631,200,Thread Group_Prod1 1-1,false,1136,1,1,11,1,1,INFPU07042,0
1512558627705,10,NoFileUpload B17_PE7631_metaData,200,Thread Group_Prod1 1-1,false,811,1,1,9,1,1,INFPU07042,0
1512558627727,12,NoFileUpload B17_PE7631_Autocorrect,200,Thread Group_Prod1 1-1,false,1176,1,1,11,1,1,INFPU07042,0
1512558627751,4,FileUpload D10_PE5216,415,Thread Group_Prod1 1-1,false,148,1,1,4,1,1,INFPU07042,0
1512558627798,3,FileUpload D11_PE6030,415,Thread Group_Prod1 1-1,false,148,1,1,3,1,1,INFPU07042,0
1512558627836,10,FileUpload D12_PE6027,415,Thread Group_Prod1 1-1,false,148,1,1,10,1,1,INFPU07042,0
1512558627873,11,FileUpload D12_PE7611,415,Thread Group_Prod1 1-1,false,148,1,1,11,1,1,INFPU07042,0
1512558627893,10,FileUpload D12_PE7611,415,Thread Group_Prod1 1-1,false,148,1,1,10,1,1,INFPU07042,0
1512558627912,11,FileUpload D12_PE7611,415,Thread Group_Prod1 1-1,false,148,1,1,11,1,1,INFPU07042,0
1512558627932,12,FileUpload D12_PE7611,415,Thread Group_Prod1 1-1,false,148,1,1,12,1,1,INFPU07042,0
1512558627956,11,FileUpload D12_PE7611,415,Thread Group_Prod1 1-1,false,148,1,1,11,1,1,INFPU07042,0
1512558627979,10,FileUpload D12_PE7611,415,Thread Group_Prod1 1-1,false,148,1,1,10,1,1,INFPU07042,0
1512558627998,12,FileUpload D12_PE7611,415,Thread Group_Prod1 1-1,false,148,1,1,12,1,1,INFPU07042,0
1512558628022,10,FileUpload D12_PE7611,415,Thread Group_Prod1 1-1,false,148,1,1,10,1,1,INFPU07042,0
1512558628041,10,FileUpload D12_PE7611,415,Thread Group_Prod1 1-1,false,148,1,1,10,1,1,INFPU07042,0
1512558628060,12,FileUpload D12_PE7611,415,Thread Group_Prod1 1-1,false,148,1,1,12,1,1,INFPU07042,0
1512558628081,12,FileUpload D13_PE5691_1Record,415,Thread Group_Prod1 1-1,false,148,1,1,12,1,1,INFPU07042,0
1512558628101,14,FileUpload D15_PE5691_1Record,415,Thread Group_Prod1 1-1,false,148,1,1,14,1,1,INFPU07042,0
1512558628116,16,FileUpload D16_PE7071_1Record,415,Thread Group_Prod1 1-1,false,148,1,1,16,1,1,INFPU07042,0
1512558628141,13,FileUpload D17_PE7071_1Record,415,Thread Group_Prod1 1-1,false,148,1,1,13,1,1,INFPU07042,0
1512558628172,10,FileUpload D18_PE7071_1Record,415,Thread Group_Prod1 1-1,false,148,1,1,10,1,1,INFPU07042,0
1512558628192,11,FileUpload D20_PE7071_1Record,415,Thread Group_Prod1 1-1,false,148,1,1,11,1,1,INFPU07042,0
1512558628212,9,NoFileUpload B17_PE7045,200,Thread Group_Prod1 1-1,true,1074,1,1,8,1,0,INFPU07042,0
1512558628221,11,NoFileUpload B21_7045RawJson_NonNumerciData,200,Thread Group_Prod1 1-1,false,1074,1,1,11,1,1,INFPU07042,0
1512558628242,2,NoFileUpload B21_7045RawJson_SkipBlankCols,415,Thread Group_Prod1 1-1,false,148,1,1,2,1,1,INFPU07042,0
1512558628245,2,NoFileUpload B21_7045RawJson_SkipNonNumericCols,415,Thread Group_Prod1 1-1,false,148,1,1,2,1,1,INFPU07042,0
1512558628247,4,NoFileUpload B21_7045RawJson_WithDimesion,415,Thread Group_Prod1 1-1,false,148,1,1,4,1,1,INFPU07042,0
1512558628259,3,NoFileUpload B21_7045RawJson_SingleNonBlankValue,415,Thread Group_Prod1 1-1,false,148,1,1,3,1,1,INFPU07042,0
1512558628262,3,NoFileUpload B21_7045RawJson_WithOtherValidation,415,Thread Group_Prod1 1-1,false,148,1,1,3,1,1,INFPU07042,0
1512559098184,61,NoFileUpload B17_PE7033_PE7314,200,Thread Group_Prod1 1-1,true,1569,1,1,60,1,0,INFPU07042,5
1512559098246,11,NoFileUpload B18_PE7033_PE7314,200,Thread Group_Prod1 1-1,true,624,1,1,10,1,0,INFPU07042,0
1512559098257,7,NoFileUpload B17_PE7044_expression,10000,Thread Group_Prod1 1-1,false,102,1,1,7,1,1,INFPU07042,0
1512559098264,4,NoFileUpload B17_PE7044_range,10000,Thread Group_Prod1 1-1,false,102,1,1,4,1,1,INFPU07042,0
1512559098311,15,NoFileUpload B17_PE7044_rangeValidationRefTable,10000,Thread Group_Prod1 1-1,false,102,1,1,15,1,1,INFPU07042,0
1512559098346,7,NoFileUpload B17_PE7044_rangeValidationRefTable_dimensions,10000,Thread Group_Prod1 1-1,false,102,1,1,7,1,1,INFPU07042,0
1512559098382,8,NoFileUpload B17_PE7631,200,Thread Group_Prod1 1-1,false,1136,1,1,7,1,1,INFPU07042,0
1512559098403,8,NoFileUpload B17_PE7631_metaData,200,Thread Group_Prod1 1-1,false,811,1,1,7,1,1,INFPU07042,0
1512559098421,8,NoFileUpload B17_PE7631_Autocorrect,200,Thread Group_Prod1 1-1,false,1176,1,1,8,1,1,INFPU07042,0
1512559098442,4,FileUpload D10_PE5216,415,Thread Group_Prod1 1-1,false,148,1,1,4,1,1,INFPU07042,0
1512559098485,3,FileUpload D11_PE6030,415,Thread Group_Prod1 1-1,false,148,1,1,3,1,1,INFPU07042,0
1512559098512,5,FileUpload D12_PE6027,415,Thread Group_Prod1 1-1,false,148,1,1,5,1,1,INFPU07042,0
1512559098546,12,FileUpload D12_PE7611,415,Thread Group_Prod1 1-1,false,148,1,1,12,1,1,INFPU07042,0
1512559098567,12,FileUpload D12_PE7611,415,Thread Group_Prod1 1-1,false,148,1,1,12,1,1,INFPU07042,0
1512559098589,11,FileUpload D12_PE7611,415,Thread Group_Prod1 1-1,false,148,1,1,11,1,1,INFPU07042,0
1512559098608,11,FileUpload D12_PE7611,415,Thread Group_Prod1 1-1,false,148,1,1,11,1,1,INFPU07042,0
1512559098628,10,FileUpload D12_PE7611,415,Thread Group_Prod1 1-1,false,148,1,1,10,1,1,INFPU07042,0
1512559098648,11,FileUpload D12_PE7611,415,Thread Group_Prod1 1-1,false,148,1,1,11,1,1,INFPU07042,0
1512559098669,11,FileUpload D12_PE7611,415,Thread Group_Prod1 1-1,false,148,1,1,11,1,1,INFPU07042,0
1512559098689,12,FileUpload D12_PE7611,415,Thread Group_Prod1 1-1,false,148,1,1,12,1,1,INFPU07042,0
1512559098710,10,FileUpload D12_PE7611,415,Thread Group_Prod1 1-1,false,148,1,1,10,1,1,INFPU07042,0
1512559098728,11,FileUpload D12_PE7611,415,Thread Group_Prod1 1-1,false,148,1,1,11,1,1,INFPU07042,0
1512559098749,14,FileUpload D13_PE5691_1Record,415,Thread Group_Prod1 1-1,false,148,1,1,14,1,1,INFPU07042,0
1512559098771,13,FileUpload D15_PE5691_1Record,415,Thread Group_Prod1 1-1,false,148,1,1,13,1,1,INFPU07042,0
1512559098784,11,FileUpload D16_PE7071_1Record,415,Thread Group_Prod1 1-1,false,148,1,1,11,1,1,INFPU07042,0
1512559098804,12,FileUpload D17_PE7071_1Record,415,Thread Group_Prod1 1-1,false,148,1,1,12,1,1,INFPU07042,0
1512559098834,11,FileUpload D18_PE7071_1Record,415,Thread Group_Prod1 1-1,false,148,1,1,11,1,1,INFPU07042,0
1512559098853,11,FileUpload D20_PE7071_1Record,415,Thread Group_Prod1 1-1,false,148,1,1,11,1,1,INFPU07042,0
1512559098873,6,NoFileUpload B17_PE7045,200,Thread Group_Prod1 1-1,true,1074,1,1,6,1,0,INFPU07042,0
1512559098880,5,NoFileUpload B21_7045RawJson_NonNumerciData,200,Thread Group_Prod1 1-1,false,1074,1,1,5,1,1,INFPU07042,0
1512559098895,6,NoFileUpload B21_7045RawJson_SkipBlankCols,200,Thread Group_Prod1 1-1,false,919,1,1,6,1,1,INFPU07042,0
1512559098901,19,NoFileUpload B21_7045RawJson_SkipNonNumericCols,200,Thread Group_Prod1 1-1,false,1076,1,1,19,1,1,INFPU07042,0
1512559098921,7,NoFileUpload B21_7045RawJson_WithDimesion,200,Thread Group_Prod1 1-1,false,1076,1,1,7,1,1,INFPU07042,0
1512559098941,6,NoFileUpload B21_7045RawJson_SingleNonBlankValue,200,Thread Group_Prod1 1-1,true,749,1,1,6,1,0,INFPU07042,0
1512559098948,8,NoFileUpload B21_7045RawJson_WithOtherValidation,200,Thread Group_Prod1 1-1,false,2299,1,1,8,1,1,INFPU07042,0
1512559368972,24,NoFileUpload B17_PE7033_PE7314,500,Thread Group_Prod1 1-1,false,290,1,1,23,1,1,INFPU07042,4
1512559368996,13,NoFileUpload B18_PE7033_PE7314,200,Thread Group_Prod1 1-1,false,605,1,1,12,1,1,INFPU07042,2
1512559369009,4,NoFileUpload B17_PE7044_expression,404,Thread Group_Prod1 1-1,false,1245,1,1,4,1,1,INFPU07042,0
1512559369014,4,NoFileUpload B17_PE7044_range,404,Thread Group_Prod1 1-1,false,1245,1,1,4,1,1,INFPU07042,0
1512559369135,3,NoFileUpload B17_PE7044_rangeValidationRefTable,404,Thread Group_Prod1 1-1,false,1245,1,1,3,1,1,INFPU07042,0
1512559369163,3,NoFileUpload B17_PE7044_rangeValidationRefTable_dimensions,404,Thread Group_Prod1 1-1,false,1245,1,1,3,1,1,INFPU07042,0
1512559369202,9,NoFileUpload B17_PE7631,200,Thread Group_Prod1 1-1,true,1530,1,1,9,1,0,INFPU07042,0
1512559369221,6,NoFileUpload B17_PE7631_metaData,200,Thread Group_Prod1 1-1,true,825,1,1,6,1,0,INFPU07042,0
1512559369237,18,NoFileUpload B17_PE7631_Autocorrect,200,Thread Group_Prod1 1-1,true,1924,1,1,17,1,0,INFPU07042,0
1512559369264,26,FileUpload D10_PE5216,500,Thread Group_Prod1 1-1,false,438,1,1,26,1,1,INFPU07042,0
1512559369331,60,FileUpload D11_PE6030,200,Thread Group_Prod1 1-1,true,3242,1,1,60,1,0,INFPU07042,2
1512559369447,46,FileUpload D12_PE6027,500,Thread Group_Prod1 1-1,false,438,1,1,46,1,1,INFPU07042,0
1512559369526,582574,FileUpload D12_PE7611,500,Thread Group_Prod1 1-1,false,438,1,1,582574,1,1,INFPU07042,2
1512559952180,3189,FileUpload D12_PE7611,Non HTTP response code: java.net.SocketException,Thread Group_Prod1 1-1,false,2675,1,1,0,1,1,INFPU07042,4
